0.0021186440677965768, 0.9569148936170211
0.003177966101694907, 0.8898936170212765
0.006355932203389814, 0.7893617021276594
0.009533898305084748, 0.6672872340425531
0.011652542372881353, 0.5882978723404254
0.016949152542372864, 0.4925531914893616
0.022245762711864375, 0.37047872340425525
0.023305084745762678, 0.28670212765957437
0.029661016949152547, 0.2077127659574467
0.03707627118644066, 0.11196808510638279
0.04661016949152538, 0.040159574468084935
0.06038135593220342, -0.04601063829787244
0.07944915254237286, -0.11063829787234059
0.09639830508474576, -0.14654255319148946
0.12394067796610167, -0.1752659574468085
0.14724576271186438, -0.18723404255319154
0.18114406779661016, -0.18484042553191493
0.21822033898305085, -0.18244680851063833
0.25529661016949157, -0.17287234042553212
0.28919491525423724, -0.1632978723404257
0.33792372881355925, -0.15611702127659566
0.37394067796610164, -0.14414893617021285
0.41419491525423735, -0.13936170212765964
0.4555084745762712, -0.1273936170212766
0.486228813559322, -0.1273936170212766
0.5286016949152542, -0.12260638297872362
0.5561440677966102, -0.11303191489361697
0.5953389830508475, -0.11063829787234059
0.6440677966101694, -0.11303191489361697
0.6800847457627118, -0.1154255319148938
0.7224576271186441, -0.11781914893617018
0.7648305084745763, -0.12021276595744679
0.7966101694915255, -0.1273936170212766
0.8358050847457628, -0.14414893617021285
0.8792372881355932, -0.1656914893617023
0.9110169491525424, -0.1680851063829787
0.9459745762711866, -0.18962765957446814
0.9692796610169494, -0.22074468085106402
0.9925847457627117, -0.2542553191489363
