dvh_cd_t,dvh_cd,sun_cd_t,sun_cd,fvm_cd_t,fvm_cd,dvh_cl_t,dvh_cl,sun_cl_t,sun_cl,fvm_cl_t,fvm_cl,sun_cd_dx_200_t,sun_cd_dx_200,sun_cl_dx_200_t,sun_cl_dx_200,sun_cd_dx_400_t,sun_cd_dx_400,sun_cl_dx_400_t,sun_cl_dx_400
0.02444178747374130,0.1482516413410780,0.20200249457451400,0.05041099933950190,0.2398755051009400,0.13997023071342400,-0.014037352183841300,0.2415718973983430,0.22665659717888800,0.09038224455016360,0.10899980732941100,0.1585594834394020,0.2684708175638900,0.06659942125464800,0.7707598656591090,0.20649902278291700,0.2387884004404890,0.057633741153892300,0.7855268681780000,0.21415139103500300
0.05322585428323110,0.14463152388022200,0.22259070166892100,0.05330313356674830,0.24883855853946300,0.137006885308745,0.009879058714926000,0.20017995426360000,0.23205088733602600,0.08434069312214130,0.13481267794080800,0.1406432141305450,0.3080473737284240,0.07166239354683940,0.9676532325776640,0.28823458854574600,0.25857667852275600,0.05918076046539520,0.8298278757346760,0.22875293694303900
0.06320903388655940,0.1410147569698140,0.222232158742651,0.05217369347042080,0.24320682319745400,0.13434395303125700,-0.00026814159834387400,0.18299112527820400,0.10083550923830800,0.07932036102404920,0.07230586193106350,0.15358701384581300,0.35356041331763800,0.07820909799688140,0.9479638958858100,0.28029267122466100,0.27836495660502300,0.06140284274919040,0.8495172124265300,0.24339584700378900
0.07551815886527850,0.13749576521337600,0.20695300133254300,0.051422560979173800,0.25699507359146800,0.1305292013743880,-0.012774456629614400,0.1697985561434270,0.22343068120978400,0.0963139040165702,0.14291412001581000,0.13743930330993400,0.38720048605749100,0.08315955979369080,1.1317310383431300,0.22050768250205200,0.29815323468729000,0.06382181839990400,0.8692065491183850,0.2582455778281090
0.09926064961707400,0.13408490485774600,0.1960361161920530,0.05089073724449540,0.23339246755052700,0.1259667468605350,-0.01587181665370350,0.16296806472856300,0.3674637455292460,0.10173492112504400,0.09719218830515080,0.09937684276107430,0.41028681048680200,0.08637079684938630,1.1645465994962200,0.22833929541589900,0.31794151276955700,0.06593139018831710,0.8888958858102430,0.2727643954307160
0.0963313041118199,0.13102615689460700,0.23867533572242000,0.054527607457588800,0.23845753243027100,0.12107858717413500,0.0027777961229880100,0.19138461776683500,0.3889837830411270,0.10745069802901400,0.0955067158734515,0.17074716020100600,0.4564594593454250,0.09101185478389510,1.1645465994962200,0.2250301631987810,0.3476239298929570,0.06909574787093680,0.8987405541561700,0.2864145658263310
0.094971828849713,0.14957967770029800,0.2639635675027530,0.05714322989426190,0.24626189489448300,0.11647329112670900,-0.04904116914930160,0.34556535021682800,0.43268908423527500,0.11522018176899600,0.10766819098834500,0.1658900313969600,0.49603601550995900,0.09569979209147970,1.2137699412258600,0.23843214867811100,0.36741220797522400,0.07387744392467310,1.0332843548838500,0.29727954993920300
0.11807045889836800,0.1487865110307080,0.2487830093973700,0.05624735362367970,0.28740611083660600,0.11131386577707800,-0.04827292895253170,0.341336187933621,0.4110648686967090,0.11007790490191500,0.11909867391601000,0.10296522288015900,0.5257184326333600,0.09947358162408540,1.2629932829555000,0.2479183277005180,0.35751806893409100,0.07071308624205350,1.0529736915757000,0.2817817807223650
0.11878380992875900,0.14773931171809400,0.24921998358876200,0.05560587551071700,0.22737024330528300,0.14287399798325800,-0.0475046887557653,0.33710702565041400,0.4764277049379540,0.12280624161449800,0.18976804201641100,0.24171058096672000,0.5455067107156260,0.10348176802207000,1.272837951301430,0.25038047964777900,0.3773063470163580,0.07226010555355640,1.0464105793450900,0.2672629631197570
0.09676454348106270,0.14694797262147600,0.2382396064717450,0.05516725799758010,0.3058105423310560,0.11327232980483200,-0.046736448558998900,0.33287786336720800,0.454610119849864,0.1187284641175650,0.23265854300186500,0.22291964400383700,0.5850832668801600,0.10692740194314500,1.3368282955499600,0.25481235315284800,0.3970946250986250,0.07591669665347250,1.108760145535960,0.2511998838158270
0.09721272213890010,0.14629004635177100,0.2804711079175510,0.059402658358808300,0.2956210067836720,0.128230567988391,-0.045968208362229000,0.3286487010840010,0.497864370928486,0.12898097874352000,0.21834133933483100,0.17755226678398400,0.6147656840035610,0.11058138863344600,1.3860516372796000,0.2579146646063970,0.4168829031808920,0.07771686457958500,1.125167926112510,0.23665349011141000
0.0976609007967375,0.14563212008206500,0.2698249973828380,0.058473337502849500,0.3195964822764010,0.12339055702008200,-0.04519996816546270,0.32441953880079500,0.51943795245408,0.13440199585199400,0.2174683391112280,0.12026634131145800,0.6345539620858280,0.114264023829515,1.430352644836270,0.2628369987793610,0.44326727395724800,0.0802764783495262,1.1547019311502900,0.2231274121739380
0.11769822162422000,0.1272558738546010,0.25885582473226700,0.05801827183297000,0.320611108960116,0.13293962579566600,-0.04443172796869280,0.3201903765175880,0.5410022219772940,0.13987427553359800,0.30169540068413500,0.21542249268360700,0.6899611407161750,0.12004893846707400,1.5164934928631400,0.2677593329523250,0.46635359838655900,0.08287828355523570,1.2433039462636400,0.2485740261213170
0.11028459965915800,0.1436583412729490,0.29416234344412600,0.06138100610035280,0.4199012978190230,0.10744362511324700,-0.04366348777192640,0.3159612142343820,0.5625711475017000,0.14532092392863700,0.3058741617544310,0.2752074685962090,0.7268992598030730,0.12503288553036700,1.5845857822558000,0.27200408290940200,0.4861418764688260,0.08514255727479910,1.272837951301430,0.25230292788820000
0.11069543009551000,0.14305524219238600,0.29093794698912900,0.06059514972264920,0.44615574618233600,0.1031796688153480,-0.042895247575160100,0.3117320519511750,0.5840368927139610,0.1513355799420150,0.29357067860316400,0.260149087739337,0.7631777696205630,0.1294295010195510,1.6247848446683400,0.2755564757389100,0.49603601550995900,0.08683021470552960,1.331905961376990,0.25799739291182500
0.12272902705844400,0.1419477329717160,0.2799202216506260,0.06021135939865450,0.49496045956185600,0.09861471257690640,-0.04212700737839020,0.30750288966796800,0.605246308432001,0.15876132982110000,0.3265444790486780,0.25248533305643500,0.7862640940498740,0.13343768741753600,1.6469353484466800,0.2788531987102150,0.5158242935922260,0.08933357322777980,1.39097397145256,0.2630851836956450
0.12473836137441600,0.13899803019587000,0.32638887882407000,0.06484973960007710,0.44782288616512200,0.11839397251626400,-0.04135876718162380,0.30327372738476200,0.631010640230965,0.165948983356059,0.394803784531792,0.2823842288343780,0.8225426038673640,0.13709427851745200,1.7434130982367800,0.27211911464837800,0.535612571674493,0.09178067650233900,1.4401973131822000,0.26683553354171200
0.1250931694785370,0.13847717189902000,0.3110649035481790,0.06416439973580070,0.5693348459479420,0.09387469120176640,-0.04059052698485390,0.29904456510155500,0.6477410493160920,0.173194948067953,0.41985307094761700,0.2686714905221620,0.9155475108540180,0.14106027347966900,1.7946053736356000,0.26926223050093300,0.5751891278390270,0.09876257779910170,1.5091099916036900,0.2725989388198600
0.1642318647030510,0.1240718762238210,0.3114981429174210,0.06352840434175230,0.7033930309747680,0.09672626736730130,-0.039822286788087500,0.29481540281834900,0.6732722318553390,0.18166608827764900,0.46594166275219000,0.24262369555059500,0.9082918088905200,0.14546328837533700,1.7552267002518900,0.2654015762476280,0.5619969424508490,0.09434966614689540,1.6223236775818600,0.27747990884011000
0.15793159322050100,0.14822270476903000,0.3119649956860020,0.06284306447747580,0.8910851866279230,0.09025861358338580,-0.03905404659132120,0.290586240535142,0.6470193691312500,0.1771677974855110,0.45023347872888700,0.22561092909315000,0.970954689484365,0.1533882091879570,1.7946053736356000,0.2832708902200680,0.5751891278390270,0.09667488305145740,1.6912363560033500,0.2809544976680850
0.13327018909078100,0.13640799378079600,0.31237582612235300,0.06223996539691260,0.8663619954309030,0.09343663601877450,-0.03828580639455130,0.28635707825193500,0.6789292733042630,0.1877791501233750,0.41389338942116900,0.21869048172063000,0.970954689484365,0.14961107112870300,1.8733627204030200,0.29436751358813900,0.6147656840035610,0.10137219623365700,1.7355373635600300,0.27284712373614400
0.17716032505280100,0.1448316431205910,0.34265589669249500,0.0674622551626988,1.334304738899310,0.08867850678897540,-0.0375175661977849,0.28212791596872900,0.7110746935376040,0.19709398684916400,0.4874698482661590,0.2482946177030760,0.9788700007172720,0.15743055055775500,1.8142947103274500,0.2879036753240340,0.6345539620858280,0.10329425052976700,1.830046179680940,0.2892604195330530
0.1662042242797500,0.14435738793451100,0.3320209906242270,0.06651648614999740,1.377799511226030,0.08647418549431020,-0.03674932600101500,0.2778987536855220,0.7007438028915770,0.19187374815211500,0.5423379123194040,0.2567048836071800,1.0402136627723000,0.13540662108672200,1.9127413937867300,0.27924477935590700,0.6543422401680950,0.10685708288353100,1.8208578225580700,0.27731445222925400
0.14603618467706500,0.14084844782941600,0.33246916928206500,0.06585855988029200,1.8422626837452100,0.08478618197231970,-0.035981085804248600,0.2736695914023160,0.7249072850805190,0.20373462601001800,0.5773539512879890,0.23779860585475400,1.0402136627723000,0.13104683939066800,1.8733627204030200,0.275990799342407,0.6741305182503620,0.10924793091039900,1.8969899244332500,0.30322495748929300
0.13818372110953800,0.13581805322562700,0.3679201011170050,0.07011314975771990,2.317930921935390,0.08193327538768050,-0.03521284560747870,0.26944042911910900,0.7537174564596080,0.21071274377730800,0.568775269090743,0.27674534579010200,1.1433953984869800,0.12461364999400300,1.9028967254408000,0.27301258034700000,0.6939187963326280,0.1113575026988130,1.8339840470193100,0.2874073054914660
0.14023787329129300,0.13280255782281100,0.35263720888474900,0.0693674999853872,2.7920288595040400,0.08138557011546150,-0.03444460541071240,0.26521126683590200,0.7784621627974210,0.22351343547592300,0.558322546413514,0.23080126462254000,1.139155053183630,0.1217225320858820,2.0252518891687600,0.29944151632105400,0.7137070744148950,0.11431090320259100,1.9570424013434100,0.2972519738373940
0.14068605194913100,0.13214463155310600,0.35308538754258700,0.06870957371568190,3.2665450342775400,0.08022389262651590,-0.03367636521394600,0.2609821045526960,0.7636207709961200,0.21828678895723300,0.7633262789206940,0.28199975953590400,1.1688374703070300,0.11799562192635200,2.092758186397980,0.2948292163212890,0.7334953524971620,0.11670175122945900,1.9521200671704400,0.28277452038750000
0.20897802190153900,0.1312388863884780,0.3420676622040830,0.06832578339168710,3.7410457108094700,0.07908496655619400,-0.032908125017176100,0.25675294226948900,0.7528269962315340,0.21561472733284300,0.7452144342817460,0.2575218808664360,1.2479905826361000,0.11390461530260000,2.1726406381192300,0.29313210422708100,0.773071908661696,0.12363989844468400,2.0472851945144100,0.3050725563105180
0.15973364490722200,0.13729838733246400,0.3768015081864840,0.07252920122591570,4.21470033579344,0.07918804415827500,-0.03213988482040980,0.25252377998628300,0.861352564027964,0.23909939364792200,0.9574698886462980,0.2894969108561340,1.3205476022710800,0.1104433549238340,2.227770780856420,0.29667287569939800,0.7532836305794290,0.11895196113710000,2.178547439126780,0.3023294235830350
0.23508877469543300,0.11699239019019500,0.37362690936013500,0.07167024192935590,4.689084707761730,0.07821985318738360,-0.03137164462363980,0.2482946177030760,0.7834169240664690,0.23349254971185300,1.1548959792126300,0.2996212690492650,1.2974612778417700,0.11838940866019000,2.337468513853900,0.29982836963500800,0.8324367429084970,0.13217194434448800,2.3065281276238400,0.30740770061173100
0.225638316542216,0.12665094720106600,0.3740564139072290,0.07103972925422160,5.162528802260910,0.0786319895411389,-0.029066924033337200,0.2356071308534560,0.7841851642632390,0.22926338742864600,1.1537436189174800,0.30596501247407500,1.4551078932305000,0.10691333813122200,2.363134970612930,0.3028361344537820,0.8522250209907640,0.13484406860981200,2.4443534844668300,0.31011162931447400
0.23738059737755700,0.12265952783152000,0.4123943632630730,0.0754715937098757,5.636426084950550,0.07837884563129030,0.03204891162013720,0.23032067799944800,0.9113123298240530,0.25900689353178900,1.3318589445377900,0.3189088121893440,1.5942854490757700,0.1030176622286190,2.483732157850540,0.3068484572670380,0.8720132990730310,0.1366723641597700,2.584991603694370,0.31971073903952800
0.21978958505743700,0.12199063612398700,0.3826950575370460,0.07491601152656900,6.1099263413918900,0.07870853625396160,-0.02753044363980100,0.22714880628704300,0.8858442943009810,0.2532927185832290,1.2427809117224200,0.31254904921043100,1.6595867667472500,0.09996581504138180,2.4640428211586900,0.30312568352277900,0.8918015771552970,0.1385006597097280,2.601868178001680,0.31586584255868600
0.25052044866092000,0.11992803726846000,0.39439252050660300,0.07430194700817730,6.583898510948340,0.0783454584236427,-0.026762203443034600,0.22291964400383700,0.9047290351378910,0.2486790870015490,1.6420475639857600,0.31884473397293100,1.8119565079807100,0.09819377473911480,2.566427371956340,0.31309720193703000,0.9313781333198310,0.14539192755187700,2.6871886369997200,0.3057950501779220
0.26001531724477800,0.11351584796959300,0.39873985348762600,0.07343933256567480,7.058088756854740,0.07766224451159840,0.05543251360932900,0.21749862689536300,0.9054972753346570,0.24444992471834300,1.7952591032275200,0.31365439844354200,1.7525916737339100,0.10481783015473200,2.6412468513853900,0.31575553815144900,0.9115898552375650,0.1406102314981410,2.7495382031905900,0.31603129916954200
0.23417611997401800,0.13398682510828100,0.4183825281080670,0.07771950846470230,7.531727223016360,0.0777890432649,0.0664496101454013,0.21342203179409000,0.8717761866977480,0.27830458238946600,1.9750342932729600,0.3174606444984280,1.8190237501529500,0.10089000839630600,2.7003148614609600,0.3042750554461920,0.9313781333198310,0.1422978889288710,2.9337741393786700,0.31172469995554900
0.21034048502136500,0.12923879052857400,0.41519547987455700,0.07687882489785660,8.004959434924810,0.07851222326185360,-0.0265876033983119,0.20954011241696500,0.9233530399080150,0.2703375241488800,2.1838140427472900,0.3168262701559470,1.9295868276919600,0.09568416563378780,2.7101595298068800,0.3005611060545130,0.9808488285254990,0.14827500899604200,2.94315001399384,0.307813620830364
0.24537311677565700,0.12748432047602600,0.4042897992005130,0.07633055300643550,8.479096073462470,0.07790770496711470,0.03606886979261500,0.20523405627406400,0.9016735343552930,0.2654996188097570,2.348095224824290,0.31278934252197700,2.048002396533460,0.09780601535324460,2.6674993003078600,0.2963051943419410,1.0171273383429900,0.1282340770061170,3.1580919395466000,0.311108964996578
0.21183441388082300,0.12704570296288900,0.45097955784515700,0.08064435624813690,8.952836123681230,0.07788537832452190,-0.04083496704745930,0.1762066242393270,0.9325253622573090,0.28193568131949200,2.455963132452270,0.308848532212625,2.1186748182558500,0.10113779936827800,2.7495382031905900,0.3091648498190210,1.089684357977970,0.11037303586422000,3.330373635600340,0.30736504957426600
0.22465232349497300,0.12478682277023400,0.4357370016921060,0.07983949311153070,9.426358866816140,0.07818205848103620,0.043122046456272000,0.19006033462765000,0.9481628332625010,0.28898909099106700,2.6825765304942900,0.3135262420107170,2.069204123050180,0.10545070169125600,2.7593828715365200,0.3150385595044060,1.139155053183630,0.10784154971812400,3.4337426532325700,0.30668300065618200
0.24565945314038700,0.12154470831896400,0.4361963848163890,0.07916511868508270,9.900325506125730,0.07782709905310050,0.2909653549358670,0.2279225507502210,0.9413536578518130,0.29542770577517600,2.8944711447664200,0.31644180085747300,2.265108076064620,0.09690927991683660,2.892285894206550,0.3012918727524600,1.1589433312659000,0.10643516852584900,3.440071368597820,0.3004106193274960
0.25893052117524000,0.12413986193835700,0.43661468489703700,0.07855105416669100,10.374144031366000,0.07768957107888500,0.21348745809161700,0.20427288302788000,0.9518361272033320,0.2998135036985020,3.1915845488654600,0.3014282747520900,2.3646148458497300,0.09434029027228020,2.9582451721242600,0.3055703049481760,1.2380964435949700,0.10400916096917400,3.4780436607892500,0.31207412855990400
0.28127098232772000,0.11894041683471400,0.46735849588396900,0.08309257300062930,10.84767619483470,0.07797242218550000,0.2442214309634420,0.22135773747878900,1.0930376776547100,0.24098970103208300,3.0820614328135400,0.30827182826491500,2.366028294284180,0.09862975290872020,2.980887909319900,0.3079239252376010,1.3271436949651700,0.10141907560673300,3.682320528967250,0.3076040424566130
0.2960131553089000,0.11017720443683300,0.4566520057245200,0.0822518894337836,11.321469529080700,0.07787187459089990,0.2564507090957060,0.2161273530641410,1.0763434190931300,0.23531877887960100,3.444880325741590,0.2978911572061350,2.484757962777780,0.09043758246371600,3.137855676835520,0.3039713506449320,1.396402668253100,0.09947358162408540,3.6060243492863100,0.2975553109572960
0.28752680942670000,0.11527613302704900,0.457100184382357,0.08159396316407830,11.795310878234100,0.07770084111220870,0.32006791487556200,0.238465385466678,1.0793472382624900,0.231201112692952,3.7507359540797500,0.29063429919745100,2.567209121453900,0.09526448362720400,3.227004617968090,0.3078825610848870,1.4755557805821700,0.09806720043181,3.755100755667510,0.3044020630922390
0.27682031926725000,0.13099326058112100,0.49228071509373500,0.08624550189089510,12.268953211898600,0.07782196237124550,0.33201469844975400,0.23479013359420000,1.0591860546986500,0.22628375036547800,4.032535188256410,0.29162430764102000,2.7538785446966100,0.09594004887849350,3.25161628883291,0.30436660810419900,1.5843913100346400,0.09563416096917360,3.7930730478589400,0.3091648498190210
0.33336702052659900,0.1142139476160690,0.4883083582564370,0.08545379727968300,12.742576652670300,0.07797081839697410,0.5520237826463830,0.25114708415213400,1.0673980768019800,0.222471096488951,4.280481219762320,0.29270082167674500,2.7655992940222600,0.09249035808859490,3.330373635600340,0.3007586409878810,1.6734385614048400,0.0945160879213146,3.9801217464315700,0.30411842318791500
0.3403309699049630,0.12054868104954900,0.47752966153544600,0.08471911294517870,13.216394076942600,0.07783490664375380,0.46774353521369600,0.24512274599067100,1.1532081787803400,0.246820818725595,4.4282626976132800,0.28635707825193500,2.7518997168883900,0.0905149334292911,3.4006926952141000,0.29773652534061500,1.7525916737339100,0.09300422813961860,4.137636439966410,0.3030264095562660
0.3615758832271730,0.11695750016074100,0.4779778401932840,0.08406118667547330,13.690281590530400,0.0775961037754904,0.7155903033608450,0.2619236983438640,1.2058861762726500,0.25486904270697,4.496548775103260,0.28299297189029400,2.9964262960478300,0.09317500299868060,3.389441645675900,0.2948528529799830,1.831744786062980,0.09237135660309460,4.196704450041980,0.3063686330955560
0.3094626648464100,0.11618991951275100,0.4670348112977530,0.08356774197319430,14.163977936160000,0.07763793546977150,0.7996913942348170,0.26808517484199100,1.1753311684466500,0.24921734401941200,4.8805117334468900,0.28039780412559900,2.939888358669920,0.09778592419335490,3.5125000000000000,0.3029720452412700,1.9108978983920400,0.09101185478389510,4.362969959884310,0.29451931346286100
0.3241218417798430,0.11122805889539000,0.5013702762509650,0.0883559831582721,14.637385039171500,0.0781043753275068,0.9269207978218180,0.2739814387221880,1.2746104998748700,0.26151074983809700,5.139571639799370,0.2823842288343780,3.0541206912357400,0.09044077878460750,3.517422334172960,0.3103230460950120,2.0296275668856500,0.09005082763584020,4.48810663308144,0.29194790762652700
0.3611059181068020,0.10660886821016700,0.49814587979596800,0.0875701267805685,15.111339030822700,0.07776798266208670,0.8556664225715840,0.2704016023652920,1.3614198961091800,0.26794099885506300,5.350290613770380,0.28142305558819400,3.2207296899144000,0.09333418680396010,3.52726700251889,0.3066002723507540,2.1483572353792500,0.08873820518971650,4.459228939266720,0.30273961809744900
0.40605263525467300,0.11348145636913100,0.4871281544574640,0.08718633645657370,15.585229449272100,0.07752491545689,1.068094924980460,0.28072673896984800,1.419065846873910,0.27347735675307900,5.760740398898040,0.2778987536855220,3.2878322482831200,0.08995037183639200,3.6388399104394000,0.2982474711127100,2.2670869038728500,0.0880115749070409,4.600335852225020,0.29204599976010600
0.4041732727494750,0.10961723607839500,0.5223101790977030,0.09073182802109700,16.058860606700100,0.07766244343110540,1.1550221389372600,0.2845978847567410,1.6078517960272700,0.2773528072816900,6.20076743160125,0.27712981508857600,3.305971503191860,0.0887147655031786,3.615869017632240,0.29377738500941900,2.3858165723664500,0.08728494462436530,4.72831654072208,0.29834845217124100
0.43751104221271300,0.11035082386911600,0.5191355802713540,0.08987286872453720,16.532547845743200,0.07771764359432330,1.2807522310479300,0.2897923114337950,1.6355388623187000,0.2822347129960830,6.546498800152710,0.2780269101183470,3.453723979539450,0.09376836192075490,3.625713685978170,0.28889641498916900,2.5045462408600500,0.08702710807244810,4.821840890008400,0.29386011331484700
0.41616653363320500,0.1085689402219980,0.5195837589291920,0.08921494245483190,17.00613426068240,0.07792085354218650,1.441987714887700,0.2947604786328520,1.7972750622053900,0.29300396093131100,6.7764063190384500,0.2749191166223540,3.538153966023790,0.09030866418775740,3.7466624685138500,0.30151839073160700,2.6173394259289700,0.08584574787093680,4.944899244332490,0.2899959493758580
0.4519788095110270,0.10566995259610800,0.555251310448754,0.09480731574732730,17.480049434817400,0.07764144499063810,1.7077368626288100,0.29872999931189500,1.7963136874976200,0.2871516481354470,6.878460045177260,0.2719394795591860,3.6671075781932300,0.08829285114549600,3.7241603694374500,0.3056548060030060,2.708365505107400,0.0855925992563272,5.161481947942900,0.2905879402367770
0.45251880254668600,0.10487724281976200,0.5437978558595750,0.09230354077650420,17.95382060149650,0.07757343938415120,1.9635589963338200,0.297843098543826,1.7118601447238600,0.27603133137865200,7.172172240405150,0.26944042911910900,3.765757964515120,0.0931738211657459,3.809480828435490,0.2969302526496190,2.821158690176320,0.08477689816480750,5.36165687097677,0.2903907770776940
0.46421128575337800,0.10427048859325600,0.5405547852938350,0.09154509799337160,18.427517486713000,0.07761447896495800,2.2044284880272200,0.2964814364450660,1.8166451144193600,0.3023674783240750,7.617873774561770,0.2684792558729260,3.691842925796070,0.09785624325296870,3.897426532325770,0.29342992612662200,2.939888358669920,0.08468313941865580,5.358375314861460,0.29376819297548300
0.4983232838480290,0.10386750875306100,0.5588180656007100,0.09785022474471460,18.90110602397670,0.0778145733403883,2.4530409626129100,0.29388918132657200,1.78682342678119,0.29800100557712800,7.950591619780110,0.26857537319754400,3.840255011413070,0.08923404471263410,4.033564231738030,0.2912128075411530,3.058618027163530,0.08407370756866980,5.515890008396310,0.28588510467159200
0.49636250221999,0.10674593618302200,0.5601439274634790,0.09590385953016960,19.374864398254800,0.07776534697861770,2.70156666626729,0.2917746001849690,1.838531978310910,0.2824098601209430,8.14211040883341,0.26982489841758200,3.9646384736444600,0.09421974331294230,3.98405961376994,0.29700378892111,3.177347695657130,0.08372211227060090,5.67734256926952,0.28891296065025500
0.5152472908853280,0.10009664421256500,0.5492755950109210,0.09530076044960630,19.848614869815600,0.07772772180594110,2.9502098281335700,0.289013411586842,1.997875202507770,0.3063524392286910,8.440903465362670,0.2704016023652920,3.9815998548578300,0.08650473791531730,4.1212286593898700,0.2944392114528430,3.2946639157162800,0.08306914957418740,5.850608732157850,0.291190746659705
0.5059377858900840,0.10215102611013400,0.5704520365937400,0.0973293664478645,20.254635470395400,0.07777068050790160,3.1988656881849100,0.286182319479902,2.179972841763450,0.3069261857202580,8.5712423987461,0.2669413786790320,4.071118255706180,0.09029225640718080,4.222956898964450,0.29808844892561,3.4148070326443300,0.08296422907254140,5.988434089000840,0.2856248865472450
0.5362440535698690,0.10118481438833800,0.6163903490220760,0.10274629273510500,,,3.447432660940770,0.2838405519346550,2.258490481874010,0.3093291188357170,8.959867178283770,0.2635196019226200,4.2105785012383500,0.09138688976850180,4.2163937867338400,0.30147111741422000,3.5335367011379300,0.08278061819466100,6.2050167926112500,0.2825593551671490
0.5664277657285750,0.10323699607792700,0.6012269710985770,0.1018251959575180,,,3.6960796322625600,0.2810583922838850,2.49222040313877,0.31415516970480300,9.353555359118300,0.26533942326872700,4.189847924199780,0.09532475710687300,4.383753148614610,0.29397356927657700,3.6522663696315300,0.08250324857062890,6.42159949622166,0.28315557197613800
0.6028161379228250,0.09949229905952080,0.5979552668963640,0.10110878735272700,,,3.9445433264465100,0.27928517327698700,2.5536797934802400,0.3193958066340770,9.552739090134820,0.26578797078361200,4.3577945920262000,0.08853085411649640,4.341092919115590,0.28884126278555100,3.7709960381251300,0.08219853264563590,6.646933016139560,0.28046075413092700
0.6098883631905710,0.09663655014870510,0.6367750083093830,0.10593723514317600,,,4.193137388663850,0.27679427824627200,2.605900920855530,0.3216801950491720,9.82591133610186,0.2645961159583450,4.30527954634634,0.08344083603214590,4.34929680940386,0.28562864692476500,3.8897257066187400,0.08184693734756710,6.723502658830110,0.2764635325162810
0.6113309099513790,0.09803115446888350,0.6214697071442340,0.10522448168432900,,,4.441656108316440,0.2747181440345160,2.6824504304619900,0.30830691871676000,10.19616882584420,0.26293940279946900,4.4339033538810800,0.09184005704156840,4.4428211586901700,0.29711133571816600,4.008455375112340,0.08175317860141540,6.874454240134340,0.2825012662877530
0.63614755818841,0.10023520747239600,0.6219178858020720,0.10456655541462300,,,4.69013101923052,0.2728831769281660,2.8415105862017400,0.313053665164677,10.489503250066300,0.26251998174658900,4.540455620477900,0.08838712504959360,4.492044500419810,0.29415793521438800,4.127185043605940,0.08182349766102910,7.091036943744750,0.2782219566706160
0.6607450968593880,0.09724164294523710,0.6223585948156120,0.10391959458274600,,,4.94805867074755,0.2707540325555600,2.7557863292453700,0.3037543140078530,10.76006347936430,0.2632889203435360,4.683730364669700,0.09105287423533640,4.60361740834033,0.2899663677393710,4.245914712099540,0.08165941985526370,7.3076196473551600,0.2771033338913770
0.6978386034753030,0.09577337082001130,0.6456340064459690,0.10838618292485700,,,5.1869919537632200,0.269702567277159,2.963247349524790,0.3103795438833310,11.147940970710600,0.2639809650807880,4.808231614270630,0.08698022869937230,4.587678421494540,0.28547922947516500,4.364644380593140,0.08130782455719480,7.496637279596980,0.27935252312511900
0.7309606869594560,0.09351202340384490,0.6424220593981340,0.10758205081743900,,,5.43540972284449,0.26818216596046900,3.0756667061756700,0.31242890255465800,11.406828605018900,0.26277629461223800,4.885735703426170,0.09058056455159730,4.736754827875730,0.29282010033232400,4.483374049086740,0.08090934988605010,7.691561712846340,0.27279748675288800
0.7363590611401430,0.09662575085387410,0.6428702380559720,0.10692412454773400,,,5.683802095555630,0.2668015716614060,3.31996129520088,0.3082054199315420,11.64345988848400,0.26109195292368800,5.045690951257830,0.08756622086282040,4.787384550797650,0.29005461126516100,4.661468551827150,0.08112030706489140,7.906503638399100,0.27364337273299100
0.7187020669620650,0.09494986643909680,0.6778132340786960,0.1119243641974950,,,5.932134151887670,0.2657530190292060,3.437148162761170,0.30320163939129800,11.888491928386400,0.2604694788213980,5.094112268080350,0.09081155200802550,4.894269521410580,0.2848309096938520,4.780198220320750,0.08086247051297430,8.068120277078090,0.2739432737830650
0.7416730905873080,0.09434402599907650,0.6624780543363590,0.11125547248996100,,,6.180475731858530,0.2646520387653960,3.4840535917749600,0.31286898259094600,12.309440996203200,0.26123841741834500,5.23250171934399,0.08721797409139980,4.931773019871260,0.28219542224950400,4.898927888814350,0.0802764783495262,8.250520104487360,0.2700711294873390
0.8549396643596300,0.09364680691048590,0.6629262329941970,0.11059754622025600,,,6.428741122718960,0.2639704795544660,3.5941424119717800,0.30823338133506800,12.76764971356320,0.2638656242912460,5.205646199089490,0.09391837591459760,5.093975650713680,0.2843109032025910,4.879139610732080,0.0786591399784095,8.339340890008390,0.2693725349081700
0.8365606045661470,0.09303091481912290,0.6633744116520340,0.10993961995055000,,,6.677057306319660,0.26300930630828200,3.545809627592400,0.3011014758483870,13.259693591589400,0.26236619402720000,5.342365211294240,0.0901595025461524,5.102413937867340,0.2817817807223650,5.017657557307950,0.08020615928991240,8.508669185558350,0.2723042923502250
0.8445182656241940,0.09238760913318880,0.6638225903098710,0.10928169368084500,,,6.925332220818900,0.2622753194657430,3.8029644236107700,0.3040229496074280,13.681855547716900,0.2605976352542230,5.4862799609834500,0.0869631816546174,5.082724601175480,0.2786381051161020,5.136387225801550,0.08034679740914000,8.705562552476910,0.27026611733103200
0.876596902047051,0.09165804200300440,0.6828328350464760,0.11449027664934600,,,7.173565548762020,0.26177026661456600,3.962893715562140,0.30244986460231900,14.166929391957800,0.26021316595574900,5.548643019182110,0.09269951221462560,5.282430730478590,0.2861072892633120,5.255116894295150,0.08032335772260210,8.893506220899160,0.26679542284817100
0.9243264351778780,0.0911338940748058,0.6832698092378680,0.11384879853638300,,,7.421812209799470,0.26119181507913600,4.140340239868300,0.306657057211327,14.452435385083900,0.2614947302839940,5.556181410832500,0.08881522130262680,5.323372049631490,0.2835466512381610,5.373846562788750,0.08041711646875370,9.099349286314020,0.269357493398092
0.9816119672542760,0.0898277885912426,0.6837291923621510,0.11317442410993500,,,7.670039506104690,0.26071996639464600,4.33365391738133,0.30009544785071600,14.978540239834000,0.2629044510450630,5.687985477344740,0.08629754782895530,5.4346714945424,0.2796928910103080,5.492576231282360,0.08001864179760900,9.28967954100196,0.26807645812313200
1.060208602000960,0.0903526066295307,0.7074577624132100,0.11697577589045500,,,7.918254104224840,0.2603180212189690,4.330810555653060,0.2950508902636640,15.272077835017200,0.2613665738511690,5.650882455940490,0.0962037453520451,5.502763783935070,0.28156117190789000,5.6113058997759600,0.08039367678221580,9.327745591939550,0.26446812520138200
1.0605540730497100,0.08984545512996620,0.7042333659582130,0.11618991951275100,,,8.166452829613650,0.2600034554293090,4.345979516538260,0.3046834481458310,15.52007973853740,0.26213551244811600,5.728056740461330,0.09217446323617610,5.565113350125940,0.2787208334215300,5.732014396077790,0.08030460597337170,9.555485586342010,0.2659310374023670
1.083765992703540,0.08888597931997920,0.7046815446160510,0.11553199324304600,,,8.40085961664478,0.25919284358672400,4.519122814885090,0.2953248246388260,16.016293065631500,0.26251998174658900,5.777032728714940,0.08920699892047500,5.693094038623010,0.2799617580029490,5.850178685197610,0.0802362960297469,9.739252728799330,0.2670320132671040
1.1315866554948000,0.08822805305027380,0.6936638192775470,0.115148202919051,,,8.662850280391250,0.2593743238499890,4.65126761158821,0.30055086088878800,17.05402843142460,0.2622316297727340,5.903512806124100,0.0869114722855277,5.758725160929190,0.2782520396907710,5.9745621474290000,0.07985456399184360,9.926301427371950,0.2636432237195310
1.2033960809468000,0.08712602654851740,0.6954341249760050,0.11254939415371500,,,8.91102995850246,0.25916461332354900,4.866772297200570,0.2939416089581820,17.302082714958200,0.2627122163958260,5.977389044297900,0.09133574863423730,5.9031136300028000,0.2807614649554200,6.086224573750360,0.07992488305145740,10.142884130982400,0.26579265550965100
1.2538547731157100,0.08756281648868290,0.7391494712614680,0.12122963473869400,,,9.159203287521120,0.2589898545515160,5.114990069866980,0.29352218790530200,18.249881597715900,0.2607898699034590,6.127037897295040,0.08800278502458920,5.93811689523276,0.27755344511160200,6.204954242243960,0.07999520211107110,10.339777497900900,0.2632949955178760
1.3445752630272600,0.08684762626587350,0.7351950415704820,0.12041161307669400,,,9.40736709290099,0.25886752341109300,5.291799598789200,0.29591388652827200,18.633303295921000,0.2611743392019330,6.082926527403320,0.08386275038982850,6.008123425692700,0.28070631275180100,6.323683910737570,0.08004208148414700,10.505167926112500,0.26121079666123400
1.3216368153507600,0.08740564521314220,0.724364057339411,0.11975368680698800,,,9.655527723734590,0.2587626681478730,5.451675796337960,0.290402656445121,18.870270476614900,0.2605976352542230,6.096118712791500,0.09166816600695690,6.096725440806040,0.2773971805346820,6.442413579231170,0.08006552117068490,10.69418555835430,0.2632727011879480
1.4580175809306900,0.08589241479281990,0.7248122359972480,0.11909576053728300,,,9.903705285481610,0.2585646082062350,5.409491668933430,0.2866774693339970,19.400181612339900,0.2617510431496430,6.348968932731570,0.08866007290125680,6.159731318219980,0.2749277406176580,6.561143247724770,0.07959672743992640,10.764192088814300,0.26501511687798500
1.5599464796004400,0.08528109163388530,0.7252604146550860,0.11843783426757800,,,10.151861683586900,0.25848305411261900,5.707154302096220,0.2910890080792990,19.693474767460500,0.2615588085004060,6.284107354573030,0.08456594098596620,6.272523089840470,0.2721143873166400,6.679872916218370,0.07952640838031270,10.969836272040300,0.26070260849931900
1.6558477148515700,0.08448684503481300,0.7256899192021800,0.11780732159244300,,,10.400041361698100,0.2582733435861790,5.950594138433970,0.28831437649870900,20.148978348127700,0.26251998174658900,6.3929428840255000,0.08372211227060090,6.28049258326336,0.27723172392382600,6.798602584711970,0.07969048618607810,11.18641897565070,0.26201938526727400
1.7674998834560300,0.0841525653240435,0.7549895989583020,0.12446882507321000,,,10.648148025245100,0.2584655782354160,6.198932543858560,0.287230872112102,,,6.55429345915783,0.08902849669222470,6.39534704729919,0.27021163629179600,6.917332253205570,0.07977643170338380,11.403001679261100,0.26267562486409700
1.8994698240784100,0.08359515556776540,0.7443453558346630,0.12353676285779400,,,10.896292783347400,0.2584481023582130,6.434826335994710,0.28566408420777400,,,6.607569592456240,0.08617246104021920,6.455608350507600,0.2742008596431470,7.036061921699180,0.07954984806685060,11.576267842149400,0.25982852486082600
2.0351808115530200,0.08306515940605830,0.7447935344925010,0.12287883658808900,,,11.144452355998900,0.2583490723873940,6.6171417454463400,0.2823855103987060,,,6.792666101287290,0.0880397025308864,6.520046179680940,0.2794653881703820,7.154791590192780,0.07940920994762300,11.729282115869000,0.2625620256498910
2.171010068395660,0.08236154381206780,0.7452417131503380,0.12222091031838300,,,11.392572775913100,0.2584655782354160,6.853546206068860,0.28490658044405900,,,6.840157968684730,0.08548008876094520,6.627243679447710,0.27080649220225500,7.273521258686380,0.07945608932069890,11.853043660789300,0.2639518611810800
2.2050840957984700,0.08201430494750110,0.7791165500385500,0.12878920757760900,,,11.638469320348600,0.25840616025292500,7.102430633451470,0.28081722517847900,,,7.000725710837980,0.09395855823437690,6.6135705289672500,0.26837979524303400,7.392250927179980,0.07969048618607810,11.934613769941200,0.2612958886325310
2.2950186131378500,0.08245292246063800,0.775194986782473,0.12792293798916300,,,11.888884513941500,0.2583082953405860,7.35044206061049,0.2815337361438160,,,7.004180807011080,0.0906368197992883,6.811448362720400,0.27026600060679200,7.510980595673580,0.07952640838031270,12.151196473551600,0.2593491590972700
2.368638182391230,0.08200516708264410,0.7643640025514010,0.1272650117194580,,,12.10315686336810,0.25848305411261900,7.559574819629770,0.27895604425632400,,,7.01429481580868,0.08761778817320380,6.919739714525610,0.27235075390357700,7.629710264167180,0.07924513214185760,12.3634037690083,0.2622064252513210
2.5778131215296900,0.08125586216436860,0.7648121812092390,0.12660708544975200,,,12.475467649636300,0.25794130191931600,7.66269360604138,0.27632242956178200,,,7.065744338822580,0.08607389415323920,7.068886439966410,0.2683384310903200,7.7484399326607800,0.07931545120147130,12.458350125944600,0.2620014428945380
2.713300019675370,0.08105482913751420,0.7652603598670770,0.12594915918004700,,,12.723509764075900,0.2584888794050200,7.910945663807480,0.2779721523697760,,,7.214816033708990,0.08890603334532810,7.093498110831230,0.2654636224766990,7.867169601154390,0.07940920994762300,12.643429890848000,0.25985426733093100
2.7925259719541100,0.08065580903875770,0.765708538524914,0.12529123291034200,,,12.967158200662900,0.2583869367880010,8.005066833732730,0.2791482789055610,,,7.2487859110835400,0.0924416756627084,7.205235096557510,0.2715234708492970,7.9858992696479900,0.07955766129569660,12.86001259445840,0.26141933645452700
2.910873667514600,0.08077840872558930,0.7951762852777250,0.1317060140399690,,,13.219813036647600,0.2583781988493990,8.179759167047740,0.2754546274309420,,,7.395160968074430,0.08651419257879470,7.26261544920235,0.26758205801212200,8.104628938141590,0.07940139671877710,13.076595298068800,0.26131931041250900
2.8941836810378400,0.08044259219209390,0.7845320421540870,0.130773951824553,,,13.467935572926000,0.25848305411261900,8.434295647306580,0.2757317449123090,,,7.352674371015450,0.09673113829914840,7.337153652392940,0.2661047668437650,8.223358606635190,0.07905761464955420,13.293178001679300,0.26145067293385600
3.0183042704444900,0.08036948927323780,0.7849802208119240,0.13011602555484800,,,13.716083505574500,0.2584481023582130,8.660292301554260,0.2734559973476080,,,7.461509900467910,0.08341739634560790,7.468415897005320,0.27055830728597100,8.342088275128790,0.07910449402263000,13.509760705289700,0.26172392703360300
3.3005074319961200,0.08004052613838510,0.7739624954734200,0.12973223523085300,,,13.964246676045100,0.2583292663932300,8.886265323068640,0.27131034797986600,,,7.402145066221110,0.09212945903802330,7.478260565351240,0.2722956016999580,8.460817943622390,0.07943264963416100,13.726343408900100,0.2593473684413080
3.4310963776668700,0.07993348257863140,0.819997913277621,0.13500661082632400,,,14.212357149047700,0.25850052998982300,9.100476959297860,0.27181933290341300,,,7.483771713310460,0.08920699892047500,7.583270361041140,0.26560012418065500,8.579547612116000,0.0791748130822438,13.942926112510500,0.26199216729665700
3.481457490196790,0.07933081863448990,0.8047000817567710,0.1342828919296480,,,14.469511269457500,0.25855994797231400,9.31535286933358,0.2686714905221620,,,7.648261774869310,0.08670188242173440,7.690666742996720,0.26016713074054900,8.698277280609600,0.07912793370916800,14.159508816120900,0.2603629091256890
3.569759653125650,0.079800330833572,0.805129586303865,0.1336523792545140,,,14.708602221604500,0.25871024051626300,9.563218267364280,0.27019189183885200,,,7.683578354502240,0.09087434195620590,7.671872376154490,0.2571287457048310,8.817006949103200,0.07901073527647830,14.346557514693500,0.25845515620185900
3.6505194020082000,0.07951509890910650,0.8055964390724460,0.1329670393902380,,,14.979337580038300,0.25851509322082500,9.811963014711130,0.2668714751702190,,,7.7484399326607800,0.08262044700331850,7.790008396305620,0.2620924440305090,8.935736617596800,0.0791748130822438,14.533606213266200,0.2623992908360960
3.7745435085093400,0.07958363289553410,0.7946534101769150,0.1324735946879590,,,15.193640510927200,0.2585215010424670,10.059708871233900,0.269049952487847,,,7.728651654578520,0.07760435408420290,7.907387134276310,0.2594705931200230,9.054466286090400,0.07931545120147130,14.700965575146900,0.26096182385632700
4.099814149197720,0.07895129264742840,0.866884870531714,0.13682321835989900,,,15.452998401356000,0.25886752341109300,10.15640128474960,0.2689735735423910,,,7.8622225316338200,0.08768341929551000,7.911425972572070,0.25591539722522100,9.123725259378330,0.07869429950821640,14.868324937027700,0.258766193142397
4.218076758988550,0.07896225808525690,0.8600127977782060,0.13587288041476900,,,15.698936532347700,0.2585791714372380,10.396385554216200,0.26598020543284900,,,7.983425734887700,0.09124625164927430,8.034156171284640,0.26328373162867200,9.232560788830800,0.07894041621686460,15.084907640638100,0.261395520730237
4.237627219071660,0.07864700174768970,0.8799147313028,0.1397724642425020,,,15.949351408485900,0.25848305411261900,10.646433770260600,0.2679025519252160,,,8.07890417663464,0.0843746731438167,8.16410579345088,0.26162365029975000,9.351290457324400,0.07908105433609210,15.301490344248500,0.2589315781270150
4.384116280796900,0.07885260370697260,0.8804422749312960,0.13899803019587000,,,16.197451722940400,0.25871024051626300,10.888373560228100,0.26478835060758200,,,8.083191636885800,0.0874607422733997,8.187076686258050,0.2639124667499240,9.470020125818010,0.07918262631108980,15.518073047858900,0.26148763207290400
4.519503583685290,0.07879777651783050,0.8808904535891330,0.1383401039261650,,,16.462578932556900,0.2583420566086490,11.14302486836050,0.2662073918364920,,,8.104628938141590,0.09616858582223820,8.329675215632390,0.26089556958574600,9.588749794311610,0.07912793370916800,15.734655751469400,0.26096282662366500
4.654878437166510,0.07876122505840240,0.8949035062908500,0.13763831590514500,,,16.68025014311810,0.25843362234567300,11.357335312342300,0.26617244008208600,,,8.124417216223850,0.09223071848386710,8.33146515533165,0.2571523823635250,9.707479462805210,0.07924513214185760,15.95123845507980,0.258976574326904
4.7954652915443900,0.07859973406492930,0.8933523101584460,0.14212317997697000,,,16.941860600877100,0.25879761990227900,11.605664590946400,0.2651391788424390,,,8.221945158200740,0.08843348926472350,8.484057514693530,0.26271980034667100,9.82620913129881,0.07901073527647830,16.167821158690200,0.26196996316273200
4.918830767818440,0.07873198389086000,0.8901341384070310,0.14132818573441000,,,17.18996091533160,0.25902480630592300,11.808550715911200,0.26590331157315400,,,8.310883682768290,0.08590200311862780,8.528358522250210,0.25897240508294000,9.94493879979241,0.07891697653032670,16.384403862300600,0.26026490055605500
4.892143388665170,0.07817030979764860,0.8905823170648680,0.14067025946470400,,,17.40425866112830,0.2590597580603290,12.04593884144020,0.26300930630828200,,,8.45834440886211,0.0891718393906681,8.640869017632240,0.25592327611145200,10.063668468286000,0.07922169245531970,16.600986565911,0.26074171642552100
5.061183514014050,0.07838657259926470,0.9028287988902760,0.14587335971429100,,,17.776535887907500,0.2587027508546040,12.28518322999010,0.26541952103924200,,,8.512762173588340,0.08610417041501740,8.607115869017630,0.25199959076829700,10.182398136779600,0.07922169245531970,16.817569269521400,0.26163292589763200
5.196514794570210,0.07841398619383570,0.8989271546856580,0.1449778489583030,,,18.02688009259900,0.258995679843917,12.365727394619700,0.26598020543284900,,,8.673991666599540,0.0889704711745014,8.744941225860620,0.2578457243518730,10.301127805273200,0.07894041621686460,17.03415197313180,0.2592808276657740
5.320667752435480,0.07829336637772310,0.8993778232249280,0.14431626754265500,,,18.27275420357430,0.2590597580603290,12.578417021095400,0.2624494957085360,,,8.725486162972710,0.08600748170804850,8.875606823906570,0.2549627682536260,10.419857473766800,0.07889353684378870,17.250734676742200,0.2620473195002760
5.596140764475250,0.07790957605372830,0.8998260018827650,0.1436583412729490,,,18.588704095406900,0.2583257712177890,12.834972316261000,0.26580544666081600,,,8.807112810062060,0.08407370756866980,8.843387909319890,0.25084139449230600,10.538587142260400,0.07908105433609210,17.467317380352600,0.2606834126674100
5.738120028456000,0.07811243665355410,0.9002741805406030,0.14300041500324400,,,18.836686951649600,0.2591995650779560,13.004337534185600,0.2648267975374290,,,8.883937889675570,0.08904567872489050,9.05281085413327,0.25529368147533800,10.657316810754000,0.07922169245531970,17.638895885810200,0.25847393421404400
5.873482432530070,0.07809416092384010,0.9197979633226460,0.14745512412104100,,,19.084881313297000,0.2589090216845790,13.33137294158490,0.26515883920429200,,,8.980809917673070,0.08649580851092180,9.105912398544640,0.2593348338495770,10.776046479247600,0.07931545120147130,17.802036104114200,0.2627444934923820
6.008844836604130,0.07807588519412610,0.8976598050365510,0.1468383182431920,,,19.2578835458934,0.258605870694076,13.579803408851200,0.26356853437878900,,,9.127965604681680,0.08948827515893010,9.197795969773300,0.25688056078854700,10.894776147741200,0.07897948236109450,18.0186188077246,0.2605431684924940
6.144272600065800,0.07796166188341330,0.9432993316929960,0.13503219684792400,,,19.581137098687700,0.2590597580603290,13.827857692384800,0.2640491210018810,,,9.197931302186830,0.08585512374555200,9.282178841309820,0.2539614334398750,10.964035121029200,0.07858882091879570,18.235201511335000,0.2600167156397710
6.279513622420040,0.07812157451841120,0.9400873846451610,0.13422806474050600,,,19.829246936781000,0.25923451683236300,14.076004037760200,0.2640229071860760,,,9.288627576730560,0.08969923233777140,9.369374475230900,0.2521988140344300,11.072870650481600,0.07919825276878170,18.45178421494540,0.2623689213109870
6.257241633006950,0.07770123273498830,0.9405355633029990,0.13357013847080100,,,20.081897010946300,0.2592519927095660,14.324107526761000,0.26423261771251600,,,9.36365813112582,0.08467141957538680,9.335621326616280,0.247863175496899,11.191600318975200,0.07878219833273360,18.668366918555800,0.2601549542800100
6.421782957587670,0.07789861061589990,0.940983741960836,0.1329122122010950,,,20.34247622868790,0.2590837873914840,14.572376092167700,0.2635335826243830,,,9.441986731868130,0.08695678901283430,9.463602015113350,0.25467447264380100,11.31032998746880,0.07910449402263000,18.884949622166200,0.2612388383335930
6.550344250529050,0.07792967935641380,0.9414319206186730,0.13225428593139000,,,,,14.82048275571480,0.2637258172736190,,,9.56302503280466,0.0899055015793051,9.545640917996080,0.2507127060171960,11.42905965596240,0.07905761464955420,19.10153232577670,0.26277432582070300
6.68580002515683,0.07777433565384440,0.9418800992765110,0.1315963596616850,,,,,15.068510055605100,0.2643549488529390,,,9.552471284494120,0.09326206469153570,9.571893366918550,0.247863175496899,11.54778932445600,0.0789326029880186,19.315302267002500,0.25947928009714900
6.815396797538930,0.07794110168748500,0.9423282779343480,0.13093843339197900,,,,,15.31686115921480,0.26320154095751900,,,9.604297727090530,0.08433489264723520,9.704348904663770,0.25466193805207000,11.666518992949600,0.0791748130822438,19.53469773299750,0.2621826930909760
6.889092619411170,0.07738140746499260,0.9427764565921860,0.130280507122274,,,,,15.564780524532000,0.26442485236175200,,,9.763546250704970,0.08266732637639440,9.729408060453400,0.25597054942884000,11.785248661443200,0.0792685718283955,19.751280436607900,0.26042885301590300
6.945046479901460,0.07803019586984100,0.9432246352500230,0.12962258085256900,,,,,15.734043363339500,0.2640098002781730,,,9.767503906321420,0.08928481867978090,9.87215575146935,0.2516273133938710,11.903978329936800,0.07904198819186220,19.967863140218300,0.26044742808707800
7.057999951083650,0.07779261138355850,0.9436728139078610,0.1289646545828630,,,,,16.06104464436640,0.26452970762497200,,,9.931087005134820,0.08573122825956580,9.837699412258600,0.2551432663745600,12.022707998430400,0.07907324110724610,20.184445843828700,0.2617389685436800
7.489197617551910,0.07767077318546490,0.9441209925656980,0.12830672831315800,,,,,16.309262417032800,0.26411028657209200,,,9.88557396554561,0.09729369077605850,9.975524769101600,0.24841469753308500,12.141437666924000,0.07894041621686460,20.391183879093200,0.2611887357797860
7.610554438568560,0.07797536868069880,0.9445691712235350,0.1276488020434530,,,,,16.54848098593970,0.26355804885246700,,,9.88557396554561,0.09419965215305270,10.095629722921900,0.2525621432452070,12.260167335417600,0.07898729558994040,,
7.6109777184120700,0.07735399387042160,0.9450173498813730,0.12699087577374700,,,,,16.805551933237300,0.2640753348176860,,,10.020793865774400,0.0906368197992883,10.09858312342570,0.25615668811605200,12.378897003911200,0.07924513214185760,,
7.746103583750050,0.07768295700527430,0.9454655285392100,0.1263329495040420,,,,,17.05358875676650,0.2646520387653960,,,9.958790594450000,0.08179537003718360,10.221641477749800,0.25326809145152600,12.497626672404800,0.07901073527647830,,
7.881478437231280,0.07764640554584620,0.942228682677051,0.12556536885605200,,,,,17.30178748215530,0.2643374729757360,,,10.139994683746200,0.08653487465515170,10.278740554156200,0.2500732030847600,12.616356340898400,0.07891697653032670,,
8.016828391898190,0.07764640554584620,0.9497232257886660,0.136640461062759,,,,,17.549970334812800,0.26411028657209200,,,10.146119626962100,0.08897260205509580,10.221641477749800,0.24653952261005200,12.735086009392000,0.07908105433609210,,
8.163532205896970,0.07753675116756190,0.950171404446503,0.13598253479305400,,,,,17.79806430017470,0.26437242473014200,,,10.305625141201000,0.09174487770835380,10.421816400783700,0.25324603057007900,12.853815677885600,0.07915137339570590,,
8.298790864911350,0.07767077318546490,0.9690696045186480,0.12479778820806300,,,,,18.046231280100900,0.26423261771251600,,,10.352247523652400,0.08542148954460040,10.486041141897600,0.2504395712945130,12.972545346379200,0.07912793370916800,,
8.253952250115670,0.07726261522185140,0.9695177831764860,0.12413986193835700,,,,,18.29444270367470,0.26384814841404200,,,10.49571253974880,0.08797641537723400,10.63019521410580,0.2497866085980990,13.09127501487290,0.07908105433609210,,
8.429675632209430,0.07760254379453250,0.969965961834323,0.12348193566865200,,,,,18.54238746536210,0.2649316528006490,,,10.540565970068600,0.08248449682139860,10.69699832073890,0.2515977675705040,13.210004683366500,0.0788700971572508,,
8.558302907008780,0.07753675116756190,0.9704141404921610,0.12282400939894700,,,,,18.790709998055400,0.26393552780005900,,,10.588057837466100,0.0907439726520331,10.819705079764900,0.24968319821631400,13.328734351860100,0.0793623305745472,,
8.69365286167568,0.07753675116756190,0.9708623191499980,0.12216608312924100,,,,,19.038540476077200,0.26564816376598600,,,10.690597096619700,0.08489196571690280,10.838574027427900,0.2531688174850130,13.447464020353700,0.0791748130822438,,
8.837139393166420,0.07741926433368600,0.9713104978078350,0.12150815685953600,,,,,19.282595466222800,0.26330814380845900,,,10.784527169854300,0.08841339810483390,10.910768261964700,0.25017956804888200,13.566193688847300,0.07919825276878170,,
8.930764270486010,0.07717123657328120,0.9717586764656730,0.12085023058983100,,,,,19.534829992281700,0.2656132120115790,,,10.677105088836300,0.08069839270720880,10.972023976117200,0.24797347990413600,13.68492335734090,0.07919825276878170,,
9.144825601935610,0.07752761330270490,0.9722068551235100,0.12019230432012500,,,,,19.7658445459964,0.26331027974900700,,,10.871689823311900,0.09007426732237810,11.131726373728900,0.2512274599176360,13.80365302583450,0.0790888675649381,,
9.28016933189893,0.07753675116756190,0.9726550337813480,0.11953437805042000,,,,,20.031132206671300,0.2655083567483590,,,10.982724050329100,0.08645934677630730,11.147040302267000,0.2544814399311360,13.92238269432810,0.07915137339570590,,
9.415519286565830,0.07753675116756190,0.973103212439185,0.11887645178071500,,,,,20.260721212748100,0.2641539762651010,,,11.117774819976000,0.0897208689714987,11.316040442205400,0.25081381839049600,14.041112362821700,0.0792685718283955,,
9.556060644019360,0.07744204965904380,0.9735513910970220,0.11821852551100900,,,,,20.437527038033000,0.2636093114255970,,,11.128937438381400,0.08334707728599420,11.429254128183600,0.25252353670267400,14.159842031315300,0.07916699985339780,,
9.687809163042920,0.07756808098992890,0.9853036314580930,0.11752404778187600,,,,,,,,,11.10651072322150,0.09639360681300230,11.557703610411400,0.24809954208383600,14.278571699808900,0.07901073527647830,,
9.65264314478332,0.07715296084356720,0.9857518101159300,0.11686612151217100,,,,,,,,,11.168513994545900,0.09403088640997960,11.523598866498700,0.24498836688327700,14.426983785425900,0.07922950568416560,,
9.776545869564630,0.07739968319470670,0.9861999887737670,0.11620819524246500,,,,,,,,,11.237473145438700,0.08687368466965440,11.713655658177100,0.24815732058286500,14.528752072706100,0.07934223941465760,,
10.024662554306300,0.07743623465413470,0.9866282483801450,0.11557951014030200,,,,,,,,,11.34248593935250,0.08934763703970250,11.718031066330800,0.24438858666892500,14.654548983371900,0.07940920994762300,,
10.171324573866700,0.07738793451131910,0.9983879583855130,0.11487406697334000,,,,,,,,,11.391461927606100,0.08362366558714160,11.767254408060500,0.25274414551714900,14.773278651865500,0.07903417496301630,,
10.295107250793300,0.0778108871132725,0.9988361370433510,0.11421614070363500,,,,,,,,,11.34001240459220,0.07999520211107110,11.841792611251000,0.2494704682880710,14.892008320359100,0.07905761464955420,,
10.295549204747500,0.07716209870842420,0.9992843157011880,0.11355821443393000,,,,,,,,,11.475703454299200,0.08754947822957900,12.00352644836270,0.25108957940859000,15.010737988852700,0.07915137339570590,,
10.419472159815500,0.07737912299877840,0.9997324943590260,0.11290028816422400,,,,,,,,,11.611394504006200,0.09411928751349410,12.013371116708600,0.24830439312584800,15.129467657346300,0.0791748130822438,,
10.566068597677500,0.07742709678927770,1.000180673016860,0.11224236189451900,,,,,,,,,11.600086916530600,0.08981977929710930,12.068501259445800,0.24682079884850700,15.248197325839900,0.07896385590340250,,
10.690161798388400,0.07739420047579250,0.9969562765618660,0.11145650551681500,,,,,,,,,11.617048297744000,0.08351115509175960,12.151196473551600,0.2511171555103990,15.366926994333500,0.07910449402263000,,
10.893222418689300,0.0773418100506122,1.0237474007748100,0.11076202778768200,,,,,,,,,11.676413131990800,0.08687368466965440,12.22995382031910,0.24819408871861100,15.485656662827100,0.07910449402263000,,
11.020338410910100,0.07738722246990160,1.0241955794326500,0.11010410151797700,,,,,,,,,11.840116159762200,0.09218469146302900,12.361216064931400,0.24499526090873000,15.60438633132080,0.07915137339570590,,
11.039924157786900,0.07723520162728030,1.0246437580904900,0.10944617524827100,,,,,,,,,11.897853386720900,0.08702041101915160,12.407157850545800,0.24914546423103200,15.72311599981440,0.0791748130822438,,
11.175143393678600,0.07742709678927770,1.0308622369679800,0.10859635381656900,,,,,,,,,11.892105363087500,0.08225009995601930,12.367779177162000,0.25464689654199200,15.841845668308000,0.07896385590340250,,
11.310493348345500,0.07742709678927770,1.0482478340699300,0.10791101395229200,,,,,,,,,12.0866900975631,0.09023365719083600,12.412080184718700,0.25150322093572900,15.960575336801600,0.0793623305745472,,
11.44587442653030,0.07738140746499260,1.0600747708739700,0.10710688184487500,,,,,,,,,12.166553558336100,0.08564236351390000,12.58654958484930,0.24795509583626300,16.079305005295200,0.07931545120147130,,
11.570123244830700,0.0771200645300819,1.0776502214351400,0.10614283710245900,,,,,,,,,12.146384736444600,0.0825970073167806,12.682808564231700,0.2510399424253330,16.188140534747600,0.07928615159329900,,
11.874457717494500,0.07741795892442070,1.1063492172956900,0.10540723898146900,,,,,,,,,12.364055795349500,0.0877654581983927,12.72218723761550,0.2479183277005180,16.316764342282400,0.07912793370916800,,
12.0098014474578,0.07742709678927770,1.1294615416922200,0.10459396900919400,,,,,,,,,12.518514299269500,0.08529257126864180,12.811883104767200,0.25143428068120600,16.43549401077600,0.07912793370916800,,
12.145151402124700,0.07742709678927770,1.1636911866845500,0.10401828352320200,,,,,,,,,12.517414950487100,0.09026178481468150,12.845245591939500,0.24856636609303700,16.554223679269600,0.07950765663108230,,
12.289603118367900,0.07731195969207930,1.1754434270456200,0.10332380579406900,,,,,,,,,12.626250479939600,0.08764993402902720,13.007682619647400,0.24898000762017700,16.672953347763200,0.07915137339570590,,
12.404557209281000,0.07744902766493460,1.1984623808884400,0.10264760379464900,,,,,,,,,12.731280571299300,0.08475526153108020,13.05690596137700,0.24471949989063600,16.791683016256800,0.07927247844281850,,
12.38227526034220,0.07704330646528290,1.2214937841384200,0.10195312606551600,,,,,,,,,12.783034529360600,0.08969397772672330,13.146914357682600,0.2504395712945130,16.910412684750400,0.0791748130822438,,
12.686576119606600,0.07739054532984960,1.2446247826457000,0.10111244249867000,,,,,,,,,12.784556704597700,0.08083903082643640,13.239735516372800,0.24824136203599800,17.02716352543570,0.07912324577186040,,
12.821901175459200,0.07742709678927770,1.2676810847100000,0.10038141331010900,,,,,,,,,12.824133260762200,0.09401213466074930,13.406770328747700,0.24684498096855500,17.14787202173760,0.0792685718283955,,
12.96246629996280,0.07729750525130550,1.29072493736714,0.09966865985126130,,,,,,,,,12.954735896105200,0.08654893846707450,13.566859781696100,0.24830990834621000,17.26660169023120,0.07928419828608740,,
13.09253261305360,0.07752761330270490,1.3228170191497300,0.09891935493298580,,,,,,,,,12.916478558479500,0.08341739634560790,13.631834592779200,0.24465331724629400,17.385331358724800,0.0793857702610851,,
13.081590829098800,0.0770323410274545,1.3538029711059700,0.09813806748771070,,,,,,,,,13.147341802772600,0.08803032665627120,13.740407220822800,0.2479273321419250,17.504061027218400,0.07919825276878170,,
13.227988387681400,0.0773722696001356,1.393784242207210,0.09739790043429210,,,,,,,,,13.144703365695000,0.08405964375674700,13.799193954659900,0.2508083031701350,17.622790695712000,0.07912793370916800,,
13.329525752495900,0.07733571814070750,1.4280418983656600,0.09678109455644340,,,,,,,,,13.27134834542150,0.09279327096077730,13.765722082283800,0.2539850700985680,17.75141450324670,0.07922950568416560,,
13.603546096568500,0.0771921231215258,1.4624271609475200,0.0959769624490257,,,,,,,,,13.379854070239200,0.08563244672344170,13.940738408433600,0.2489956340778690,17.860250032699200,0.07933889088800930,,
13.724122161907500,0.07759157835670410,1.5150109669190200,0.09494986643909680,,,,,,,,,13.40255985085930,0.0896174939436904,14.00937762384550,0.25013820389616800,17.97897970119280,0.07908105433609210,,
13.724501868825900,0.0770341686004259,1.5652219158854000,0.09409456228847990,,,,,,,,,13.592831755496500,0.08659592087173950,14.159508816120900,0.2494876585853030,18.09770936968640,0.07915137339570590,,
13.859689981199700,0.0772717530867084,1.6109485883919800,0.09319905153249200,,,,,,,,,13.543107364417900,0.08161254048218780,14.261893366918600,0.24760671775007200,18.21643903818000,0.07924513214185760,,
13.995046160570200,0.07726261522185140,1.6565476544751500,0.09249086700607310,,,,,,,,,13.560257205422600,0.09268076046539520,14.32358662188640,0.24383706463273800,18.335168706673600,0.07912012048032200,,
14.130352542312000,0.07732658027585050,1.6931022262550200,0.091813751220168,,,,,,,,,13.751983633064100,0.08927731798008880,14.422629951912100,0.2483595453294670,18.453898375167200,0.0793623305745472,,
14.265808316939800,0.07717123657328120,1.7808705467481800,0.09212078347936380,,,,,,,,,13.808270290720300,0.08543320938786930,14.58939266722640,0.24593284837024700,18.57262804366080,0.07935451734570120,,
14.435058007309200,0.077079857924711,1.781318725406020,0.09146285720965850,,,,,,,,,13.837293098574300,0.08103592419335490,14.592674223341700,0.2514480687321110,18.69135771215440,0.07913574693801390,,
14.558954507387000,0.07733571814070750,1.7874438337298000,0.09075010375081100,,,,,,,,,13.95206511145150,0.08836317020510970,14.605800447803000,0.2492419805873650,18.81008738064800,0.07924513214185760,,
14.694279563239500,0.0773722696001356,1.8501066797397700,0.08982900697322350,,,,,,,,,14.066837124328600,0.08639423653592420,14.769878253568400,0.24881455100932100,18.928817049141600,0.07905761464955420,,
14.829629517906500,0.0773722696001356,1.8618265516422100,0.0891820461413466,,,,,,,,,14.186032399365300,0.08860721870612230,14.839884784028400,0.24630052972770400,19.047546717635200,0.07945608932069890,,
14.976333331905200,0.07726261522185140,1.95167641301289,0.08974493861653900,,,,,,,,,14.261066684582200,0.08480935311539850,14.917548278757300,0.2442231300580690,19.166276386128800,0.07937795703223920,,
15.089124960794300,0.07726261522185140,1.9746953668557100,0.08906873661711960,,,,,,,,,14.279671048591200,0.09266825929924170,14.994336691855600,0.25017956804888200,19.285006054622400,0.07915137339570590,,
15.141972694197700,0.07695192781671270,2.0396510379676000,0.08832987497296630,,,,,,,,,14.278571699808900,0.08055775458798130,14.973334732717600,0.24687043583176300,19.403735723116000,0.07912793370916800,,
15.371104033017000,0.07726261522185140,2.1111109907756900,0.08750433415359800,,,,,,,,,14.436877924467000,0.08840223634933960,15.11247271200670,0.2533894262994870,19.5224653916096,0.07919825276878170,,
15.506466437091100,0.07724433949213730,2.167872817790800,0.08696702770000530,,,,,,,,,14.492944712366800,0.0848003378513454,15.219920235096600,0.2512156415882890,19.6411950601032,0.07912793370916800,,
15.65311215385650,0.07721997185251860,2.2809781717403700,0.08650647931121150,,,,,,,,,14.569459387618200,0.09076808204390070,15.290239294710300,0.2494704682880710,19.7599247285968,0.07901073527647830,,
15.776923582985300,0.07760071622156110,2.399319746342350,0.08588543678692910,,,,,,,,,14.647128379091100,0.0868513104234137,15.448265399587800,0.2492808378217330,19.878654397090400,0.07908105433609210,,
15.777346862828800,0.07697934141128380,2.5021927546966700,0.08582348918361260,,,,,,,,,14.698365884839800,0.0843750749670145,15.508228379513000,0.24711862074804700,19.997384065584000,0.07908105433609210,,
15.912510076388200,0.07725347735699440,2.5834358073501300,0.08482876732346290,,,,,,,,,14.868414604184100,0.08823010490768680,15.61651973131820,0.2510482152558760,20.116113734077600,0.07929201151493340,,
16.036567173818400,0.0772735806596798,2.6289152702002100,0.08429616034322520,,,,,,,,,14.929111341763400,0.0854097697013314,15.664336691855600,0.24850136528162900,20.234843402571200,0.07922169245531970,,
16.307321238073300,0.07719408123542370,2.5986845526370300,0.08373222354062060,,,,,,,,,14.988476176010200,0.09240651613290150,15.747781975930600,0.25177898195382300,20.353573071064800,0.07908105433609210,,
16.431466726294300,0.07708442685713950,2.7071562372408500,0.08455463137775230,,,,,,,,,15.10119868865740,0.08788299148374720,15.842947103274600,0.2488559151620350,20.472302739558400,0.07924513214185760,,
16.55544881604630,0.07721464143135200,2.7755034825610600,0.08356774197319430,,,,,,,,,15.07151627153400,0.0817230418615809,15.89807724601180,0.2464898856267950,,,,
16.702007905686800,0.07731744241099350,2.8302621999637800,0.08321136524377060,,,,,,,,,15.19872663063430,0.08542383351325420,16.075000000000000,0.24821772537730500,,,,
16.837357860353700,0.07731744241099350,2.8920548324131200,0.08356774197319430,,,,,,,,,15.099785240222900,0.09504348086841790,16.04968513853900,0.2460431527774840,,,,
16.97051173959720,0.07722971890836610,2.968186514183140,0.08298030780381450,,,,,,,,,15.17234225985790,0.09073057854544,16.21212216624690,0.25038638881245200,,,,
17.119593701599100,0.07694050548564150,3.1020057845980200,0.08259912829835030,,,,,,,,,15.31745629912790,0.08739879453040660,16.36274559193960,0.24754053510573000,,,,
17.232184583797700,0.07723520162728030,3.1823501086201500,0.0823980952714959,,,,,,,,,15.404854527324600,0.08441358302346970,16.348963056255200,0.24339584700378900,,,,
17.378757679021300,0.07731744241099350,3.257942908908730,0.0818132719206467,,,,,,,,,15.462570338397800,0.08974611171084720,16.555982367758200,0.2493995583119900,,,,
17.51412008309540,0.07729916668127950,3.368472895496690,0.08145384923627060,,,,,,,,,15.541063841457500,0.08695678901283430,16.549794290512200,0.24438858666892500,,,,
17.6472615129317,0.07722971890836610,3.4571894458353700,0.08184068551521780,,,,,,,,,15.57470391419740,0.08393306944944220,16.70435558354320,0.2458363320139140,,,,
17.77973837077840,0.07723270948231930,3.5530640280375300,0.08108556559203320,,,,,,,,,15.72311599981440,0.08860426412378550,16.781472152253000,0.24855257804213200,,,,
17.886469401908100,0.07709813365442500,3.671840049223980,0.08133201103817700,,,,,,,,,15.713221860773200,0.0866051937147655,16.81100615729080,0.25194443856467900,,,,
18.145796777799300,0.07723520162728030,3.7737296285161100,0.08077840872558930,,,,,,,,,15.945473756159800,0.08730732688143530,16.942268401903200,0.24775287108966200,,,,
18.281121833651900,0.0772717530867084,3.8619358569062100,0.08044259219209390,,,,,,,,,15.944085105066300,0.08529257126864180,16.94883151413380,0.24356130361464500,,,,
18.42556857013220,0.07716392628139560,3.9752332874234300,0.08064623603747890,,,,,,,,,15.990257753925000,0.09275308864099800,17.107539500801500,0.24852500194032300,,,,
18.540489047646000,0.07735033872447880,4.037232224334310,0.08030552421923860,,,,,,,,,16.029834310089500,0.09766872576066530,17.273705569549400,0.24993138313259800,,,,
18.529512405351100,0.07690623849242770,4.1459279982670400,0.08079896892151760,,,,,,,,,16.176832947272000,0.08877503898284750,17.29749685138540,0.24612588108291200,,,,
18.687159248245400,0.07729002881642240,4.250006287083340,0.0803439032516381,,,,,,,,,16.205730115265200,0.08568323271094050,17.48044360481390,0.24758741447880600,,,,
18.81124871413420,0.07726261522185140,4.299468611699040,0.07985167693134000,,,,,,,,,16.287081925159000,0.09213695973771540,17.463379513014300,0.24339584700378900,,,,
19.061975624577500,0.07714686893366250,4.388878179036420,0.08014104265181230,,,,,,,,,16.42999726686420,0.08737870337051700,17.42793870696890,0.23975580156495900,,,,
19.18353578591110,0.07715296084356720,4.449705093187320,0.07954969225463660,,,,,,,,,16.534435401187300,0.08487065691095920,17.62237090680100,0.24868011751300000,,,,
19.318761246506400,0.07733571814070750,4.558509132500200,0.0794899697807497,,,,,,,,,16.613588513516400,0.0911583528247571,17.62483207388750,0.24587769616662800,,,,
19.454148549394800,0.07728089095156540,4.642777613404900,0.07996742321952890,,,,,,,,,16.67436679619760,0.08725815641117910,17.762657430730500,0.253219027478177,,,,
19.589510953468900,0.07726261522185140,4.7557871069193300,0.07964759794953330,,,,,,,,,16.81806738703310,0.09166816600695690,17.772502099076400,0.25646691926140700,,,,
19.724935604578800,0.07715296084356720,4.8235928030279800,0.07945570278753590,,,,,,,,,16.85599492002410,0.0884100495781856,17.92454753241910,0.24984865482717000,,,,
19.871770137352700,0.07685141130328550,4.947812987691920,0.07923639403096740,,,,,,,,,16.817407777763700,0.08483315341249850,18.00549258326340,0.24637406599919600,,,,
19.995567042173200,0.07725347735699440,5.0921974771364000,0.07921994587422480,,,,,,,,,17.09716455915180,0.08983987045699890,18.15465422486830,0.24761875095813500,,,,
20.130892098025800,0.07729002881642240,5.2241804896363,0.07919527363911080,,,,,,,,,17.162332686490000,0.08560630245768790,18.27261125104950,0.2502457506932240,,,,
20.266242052692700,0.07729002881642240,5.348255949941980,0.07918842024046810,,,,,,,,,17.308157074203900,0.08283609211946740,18.440845694561100,0.2474893661168170,,,,
20.3903165792928,0.07728454609750820,5.489299952209670,0.07910846392296920,,,,,,,,,17.30222059077930,0.08904526508336330,18.40748320738880,0.2434372111565030,,,,
,,5.624656131580160,0.07909932605811210,,,,,,,,,17.355648941601400,0.09223071848386710,18.615862020710900,0.24700372032384200,,,,
,,5.7241517936200700,0.07874843204760260,,,,,,,,,17.306178246395700,0.09588730958378310,18.604376574307300,0.2444299508216390,,,,
,,5.861761315686900,0.07874294932868840,,,,,,,,,17.46872481635720,0.08498785534364880,18.784534005037800,0.2518672254796130,,,,
,,5.991574396518440,0.0785921745585476,,,,,,,,,17.522435856866200,0.08865951481348210,18.87264378673380,0.24935228499460200,,,,
,,6.121186211934190,0.07873685741878370,,,,,,,,,17.705241854388100,0.0859606023349726,18.9046389588581,0.25249596060086500,,,,
,,6.22269452813198,0.07874294932868840,,,,,,,,,17.755372158863200,0.08911417776178480,19.034588581024300,0.24763153624170100,,,,
,,6.504899764584810,0.07841094023888340,,,,,,,,,17.800885198452400,0.09171504538003280,19.032619647355200,0.2439749451417850,,,,
,,6.640191622018290,0.0784962269775489,,,,,,,,,17.936929610268000,0.08668430265683100,19.032619647355200,0.2406658129246660,,,,
,,6.780250120322590,0.07868028968395460,,,,,,,,,17.969085562151600,0.08344083603214590,19.227051847187200,0.24843813721962300,,,,
,,6.9107919360948,0.0786424328152612,,,,,,,,,18.066228018191900,0.08886818890597230,19.206542121466600,0.24427828226168700,,,,
,,7.041463581398840,0.07841398619383570,,,,,,,,,18.19170369057720,0.08570862570468990,19.350110201511300,0.2521030011500820,,,,
,,7.181709710053950,0.07832260754526550,,,,,,,,,18.238925717818900,0.09074762559019490,19.377183039462600,0.25530872298541600,,,,
,,7.3113951844620700,0.07835915900469360,,,,,,,,,18.31448096140580,0.08799878962347480,19.50784863750860,0.24852500194032300,,,,
,,7.452291350019710,0.0784962269775489,,,,,,,,,18.450092937074400,0.08540436054289960,19.667153270742700,0.24745329434727900,,,,
,,7.5764306135371000,0.0783957104641217,,,,,,,,,18.518759953325700,0.09093997307851210,19.731591099916000,0.2500141114380260,,,,
,,7.723142727140660,0.07827387226602810,,,,,,,,,18.570649215852600,0.08860225500779660,19.672523089840500,0.2448849565014920,,,,
,,7.8586088762744100,0.0781032987886971,,,,,,,,,18.60478399554450,0.08266732637639440,19.878503842924500,0.251315491319566,,,,
,,7.993884134498340,0.07821295316698130,,,,,,,,,18.724338175624800,0.0856558864099796,19.95998740554160,0.24736680566433100,,,,
,,8.241926122797040,0.07835915900469360,,,,,,,,,18.748743718593000,0.0922869737315581,20.023649594178600,0.2535990046732380,,,,
,,8.44500085242604,0.07828605608583750,,,,,,,,,18.751622013586700,0.08880426248814160,20.053183599216300,0.2500141114380260,,,,
,,8.580425503535920,0.07817640170755330,,,,,,,,,18.87494895880650,0.08483940399557530,20.15491183879090,0.247457806800302,,,,
,,8.715831480535050,0.07809416092384010,,,,,,,,,18.967733996036700,0.09058473160698180,20.145067170445000,0.24289947717122100,,,,
,,8.806089682460640,0.07805760946441200,,,,,,,,,18.946626499415600,0.08812408540242290,20.28468246698730,0.2504309761458970,,,,
,,9.189680815940840,0.07791140362669970,,,,,,,,,19.17312617469570,0.0907702457072734,20.366572208228400,0.24848363778760900,,,,
,,9.324987197682670,0.07797536868069880,,,,,,,,,19.167037473747300,0.08711365460735740,20.410873215785100,0.25142049263030200,,,,
,,9.460318478238830,0.0780027822752699,,,,,,,,,19.195958803252200,0.084308104434049,20.460096557514700,0.2539850700985680,,,,
,,9.6067328435211,0.07831803861283700,,,,,,,,,19.32458261078690,0.09419965215305270,,,,,,
,,9.674417157909920,0.07830433181555150,,,,,,,,,19.368399512254800,0.09072388149214350,,,,,,
,,10.069293678982600,0.0781489881129822,,,,,,,,,19.39582041188310,0.08747715005397620,,,,,,
,,10.193415513330000,0.07807405762115460,,,,,,,,,19.387245491380800,0.08405026788213190,,,,,,
,,10.452897261870000,0.07798450654555590,,,,,,,,,19.610275875599700,0.08889739972745320,,,,,,
,,10.589848743843900,0.07799886604747400,,,,,,,,,19.621406782020900,0.08532538682979490,,,,,,
,,11.129734181054600,0.0778565764375576,,,,,,,,,19.83849583274700,0.0876823162514376,,,,,,
,,11.273002847920000,0.07805891487367730,,,,,,,,,19.947913370378300,0.08493032156760120,,,,,,
,,11.400309596316800,0.07803933373469800,,,,,,,,,19.95922095785390,0.09170834832673620,,,,,,
,,11.535684449798000,0.0780027822752699,,,,,,,,,19.95780750941950,0.0961123305745472,,,,,,
,,11.670897460986100,0.07820381530212430,,,,,,,,,20.05345085348380,0.08179224474564530,,,,,,
,,11.806324186997200,0.07809111496888770,,,,,,,,,20.11776275725110,0.08857412738395110,,,,,,
,,11.941854658068000,0.07782611688803420,,,,,,,,,20.175478568324400,0.08588793930670500,,,,,,
,,12.077202537833700,0.07782916284298650,,,,,,,,,20.358520140585400,0.08826648149814080,,,,,,
,,12.217240583540500,0.07804324996249380,,,,,,,,,20.376659395494100,0.09129313102235020,,,,,,
,,12.325057785024900,0.07824950462640940,,,,,,,,,20.439793425566100,0.08572118267962100,,,,,,
,,12.731375311279600,0.0778565764375576,,,,,,,,,20.501985156681800,0.08927731798008880,,,,,,
,,12.866656794207200,0.07795709295098480,,,,,,,,,,,,,,,,
,,12.96809456376440,0.07806674732926900,,,,,,,,,,,,,,,,
,,13.160002175168900,0.07782916284298650,,,,,,,,,,,,,,,,
,,13.2500985348014,0.07803019586984100,,,,,,,,,,,,,,,,
,,13.430341051695000,0.07835915900469360,,,,,,,,,,,,,,,,
,,13.678681825765600,0.07806674732926900,,,,,,,,,,,,,,,,
,,13.819738277440500,0.07796851528205610,,,,,,,,,,,,,,,,
,,13.949400409210200,0.07803933373469800,,,,,,,,,,,,,,,,
,,14.08480016150570,0.07796623081584180,,,,,,,,,,,,,,,,
,,14.175045914024100,0.07794795508612780,,,,,,,,,,,,,,,,
,,14.558574800468500,0.07789312789698570,,,,,,,,,,,,,,,,
,,14.69394342924620,0.07786571430241460,,,,,,,,,,,,,,,,
,,14.829287159209500,0.07787485216727160,,,,,,,,,,,,,,,,
,,14.964485646089300,0.07809720687879240,,,,,,,,,,,,,,,,
,,15.043373389473400,0.0781946774372673,,,,,,,,,,,,,,,,
,,15.415635562436100,0.07812157451841120,,,,,,,,,,,,,,,,
,,15.551066438249500,0.0780027822752699,,,,,,,,,,,,,,,,
,,15.686385269398500,0.07804847159955500,,,,,,,,,,,,,,,,
,,15.821747673472600,0.07803019586984100,,,,,,,,,,,,,,,,
,,15.952290378488200,0.0779910335918823,,,,,,,,,,,,,,,,
,,16.047088167811100,0.07838657259926470,,,,,,,,,,,,,,,,
,,16.385662244992900,0.07809416092384010,,,,,,,,,,,,,,,,
,,16.52105369768370,0.07803324182479330,,,,,,,,,,,,,,,,
,,16.656393277844700,0.07804847159955500,,,,,,,,,,,,,,,,
,,16.791737007808000,0.07805760946441200,,,,,,,,,,,,,,,,
,,16.915938518361200,0.07786571430241460,,,,,,,,,,,,,,,,
,,17.287982826698500,0.07811243665355410,,,,,,,,,,,,,,,,
,,17.423376354290400,0.07804847159955500,,,,,,,,,,,,,,,,
,,17.560339396428200,0.0780458607810244,,,,,,,,,,,,,,,,
,,17.694051364809900,0.07808502305898310,,,,,,,,,,,,,,,,
,,17.8293452971446,0.07816726384269620,,,,,,,,,,,,,,,,
,,17.964676577700800,0.0781946774372673,,,,,,,,,,,,,,,,
,,18.07748688070060,0.07816726384269620,,,,,,,,,,,,,,,,
,,18.235500981106200,0.07801192014012690,,,,,,,,,,,,,,,,
,,18.370819812255200,0.07805760946441200,,,,,,,,,,,,,,,,
,,18.506082621072000,0.07818553957241030,,,,,,,,,,,,,,,,
,,18.641544620403300,0.07802105800498390,,,,,,,,,,,,,,,,
,,18.728111573105300,0.07788399003212870,,,,,,,,,,,,,,,,
,,19.11511384414800,0.07824950462640940,,,,,,,,,,,,,,,,
,,19.25060489209600,0.07804237968965030,,,,,,,,,,,,,,,,
,,19.385919573442600,0.07809416092384010,,,,,,,,,,,,,,,,
,,19.521238404591600,0.07813985024812520,,,,,,,,,,,,,,,,
,,19.634067381702200,0.07808502305898310,,,,,,,,,,,,,,,,
,,19.99485742596490,0.0782951939506945,,,,,,,,,,,,,,,,
,,20.130338099407000,0.0781032987886971,,,,,,,,,,,,,,,,
,,20.265744076406200,0.07802105800498390,,,,,,,,,,,,,,,,
,,20.401100255776700,0.07801192014012690,,,,,,,,,,,,,,,,
