0, 1.7484974572353282
2, 1.629167564838818
4.000000000000007, 1.4945334558433003
6.000000000000007, 1.4111729309151038
8, 1.3639345107504004
10, 1.328141303614245
12, 1.3106204379528057
14.000000000000007, 1.3221943915940797
16.000000000000007, 1.3264692464471395
18, 1.3518565091918704
20, 1.39172403950645
22, 1.383906953257958
24, 1.3984438908821568
26, 1.4270727699954457
28, 1.4145424784959013
30, 1.4187183995195864
32, 1.442568870839947
34, 1.4333842895161684
36, 1.4376195938374021
38.000000000000014, 1.4434952860349
40, 1.4415606523141207
42, 1.4529630242672535
44, 1.4360125393957548
46, 1.4384415271569932
48, 1.4647447840552388
50.000000000000014, 1.4374643109319094
52, 1.437114035317551
54.000000000000014, 1.4686621048007056
56, 1.4376222666284273
58, 1.43697723048358
60.000000000000014, 1.4651481884391921
62, 1.4449622456666333
64.00000000000001, 1.4413002181575356
66, 1.4545263676103604
68, 1.4453418037332584
70.00000000000001, 1.4493067602233811
72, 1.446876397277719
74.00000000000001, 1.446358195964554
76, 1.460454694598057
78, 1.4369073755410318
80.00000000000001, 1.4387957333688188
82, 1.4661506790292624
84, 1.4374793425077388
86, 1.4372343800564693
88, 1.4716125537147
90, 1.4373940560117344
92, 1.4365047462729283
94, 1.4627856147072196
96, 1.4446777131508095
98, 1.4434414322280573
100, 1.4545137176984086
102, 1.4488940120029747
104, 1.4527793174864043
106, 1.44376550923307
108, 1.445840474811347
110, 1.4617543913955375
112, 1.4374306635328753
114, 1.4394148100876083
116, 1.469311186364102
118.00000000000003, 1.4374457847515758
120, 1.437135643487233
122, 1.4679056393928345
124, 1.4447581815473551
126, 1.4394892856213668
128.00000000000003, 1.4615509461112377
130, 1.445400616820068
132, 1.4440631135408395
134, 1.4471907432751836
136, 1.4448845929007539
138, 1.4558979911678376
140, 1.440900612684363
142.00000000000003, 1.4459492456485492
144, 1.4664912085894588
146, 1.4374730184160633
148.00000000000003, 1.439955953173221
150.00000000000003, 1.469013486342061
152, 1.4372445121477702
154, 1.437631872676481
156.00000000000003, 1.4660858672193453
158, 1.4444378075641668
160, 1.440434759641325
162.00000000000003, 1.4552036720842196
164, 1.448850973073307
166, 1.450420112570623
168.00000000000003, 1.4479473638970377
170.00000000000003, 1.4468819357768423
172, 1.4624491436475486
174, 1.4373122562075906
176.00000000000003, 1.4394047006116246
178, 1.4662936296494893
180, 1.4374842972668607
182.00000000000003, 1.4371035065927746
184, 1.4673805690247423
186, 1.437055862408824
188, 1.4366036733077812
190.00000000000003, 1.4633415789489865
192, 1.4436942154370085
194, 1.4422817092038918
196.00000000000003, 1.455079945533495
198, 1.444840284414794
200, 1.453987518048912
202.00000000000003, 1.4448226849442924
204, 1.4459772607654584
206, 1.4607566730432537
208, 1.4375281880839301
210.00000000000003, 1.4401715020512662
212, 1.4682574753528819
214, 1.4370380724255567
216, 1.4364964140199417
218, 1.4680131869145767
220, 1.4441825479493313
222, 1.4391462317084487
224.00000000000006, 1.4590853942822464
226, 1.4455675521833933
228, 1.4434616533863804
230, 1.4483977731654545
232, 1.4448110984458966
234, 1.4574094006657765
236, 1.4375232397819335
238, 1.4460205021743318
240, 1.465513374907706
242, 1.437393422463018
244.00000000000006, 1.4389896028546627
246, 1.468118397523765
248, 1.467906269159094
250, 1.4642912536987525
