0, 1.9495014205336922
2.000000000000007, 1.9262508466348456
4, 1.6531470672312607
6.000000000000007, 1.589291678552962
8, 1.4731935901825424
10.000000000000007, 1.46362272702962
12.000000000000014, 1.5608475283175223
14.000000000000007, 1.4685359141261998
16.000000000000014, 1.5023921388114927
18.000000000000014, 1.5462385291802054
20.000000000000014, 1.4653060698161504
22.000000000000014, 1.5550785327386294
24.000000000000014, 1.509482060862422
26.000000000000014, 1.4656237493995095
28.000000000000014, 1.5807864993297454
30.000000000000014, 1.4785431225606491
32.000000000000014, 1.4990152874178817
34.000000000000014, 1.5746151376751003
36.000000000000014, 1.4720895811667383
38.000000000000014, 1.5300142962298997
40.000000000000014, 1.540737660381127
42, 1.4759898027656575
44.000000000000014, 1.5704557670856494
46.000000000000014, 1.4966556256616446
48.00000000000003, 1.4834910502645196
50, 1.592985071915341
52.000000000000014, 1.4796677620694567
54.000000000000014, 1.5112878654701023
56.00000000000003, 1.5561379631449725
58, 1.4743161444434771
60.000000000000014, 1.5507911631330307
62.000000000000014, 1.526935358225694
64.00000000000003, 1.4724074716813185
66, 1.5808406777175121
68.00000000000001, 1.4929083219091241
70.00000000000001, 1.4917233523477502
72.00000000000003, 1.5810052169160504
74, 1.4786243898471
76.00000000000001, 1.5347771979771372
78.00000000000001, 1.5513194668093084
80.00000000000001, 1.478747840215381
82.00000000000001, 1.5800663058649376
84.00000000000004, 1.516665761480829
86.00000000000004, 1.491219624988535
88.00000000000004, 1.593784609080214
90.00000000000001, 1.4917256305779225
92.00000000000004, 1.517394737726926
94.00000000000004, 1.5770003718608816
96.00000000000004, 1.497910081109859
98.00000000000001, 1.5724977803302127
100.00000000000004, 1.5416934319949562
102.00000000000004, 1.5075143191413045
104.00000000000004, 1.6082468455855403
106.00000000000001, 1.5184534089006736
108.00000000000004, 1.5356962213222427
110.00000000000004, 1.5977102794848608
112.00000000000004, 1.5331171534037105
114.00000000000004, 1.587245422269056
116.00000000000004, 1.5511965107532202
118.00000000000004, 1.542167003343976
120.00000000000004, 1.6126870193295468
122.00000000000004, 1.5044856215677775
124.00000000000004, 1.5225884365321436
126.00000000000004, 1.5400347814516382
128.00000000000006, 1.4485016262706185
130.00000000000006, 1.479276583960442
132.00000000000006, 1.4749077098274335
134.00000000000006, 1.4094537161084337
136.00000000000006, 1.4546520970683403
138, 1.4694539357762968
140.00000000000006, 1.4284049601837474
142.00000000000006, 1.468854709313722
144, 1.5021581182155908
146.00000000000006, 1.4469455328146898
148.00000000000006, 1.4828368269514642
150.00000000000006, 1.5054526402896924
152.00000000000006, 1.4507401351305134
154, 1.4824320080310236
156.00000000000006, 1.4892780173914502
158.00000000000006, 1.4465656045892723
160.00000000000006, 1.481463363910673
162.00000000000006, 1.4803410286103726
164.00000000000006, 1.4459795269307985
166.00000000000006, 1.480700304463469
168.00000000000006, 1.4785333910665674
170, 1.4454942855154425
172.00000000000006, 1.4799759524138882
174.00000000000006, 1.4723299078140561
176.00000000000006, 1.454530384230734
178.00000000000006, 1.4812420171226661
180.00000000000006, 1.4711844424832896
182.00000000000006, 1.4538708804417404
184.00000000000006, 1.4808982794037817
186.00000000000006, 1.4645314043203328
188.00000000000006, 1.4532724162242385
190.00000000000006, 1.4883818005443337
192.00000000000006, 1.4655517614580995
194.00000000000006, 1.4526868922861733
196.00000000000006, 1.487837370279356
198.00000000000006, 1.4528757316137555
200.00000000000006, 1.4531902661078804
202.00000000000006, 1.4873944838604984
204.00000000000006, 1.4534558463792895
206.00000000000006, 1.453406144287291
208.00000000000006, 1.4867942052885466
210.00000000000006, 1.4498458608525353
212.00000000000006, 1.4579890871513352
214.00000000000006, 1.4864134841140206
216, 1.4508691349349239
218.00000000000006, 1.4611813123920026
220.00000000000006, 1.49556516582373
222, 1.4519764566719953
224.00000000000006, 1.4612308101165998
226.00000000000006, 1.494945955037298
228.00000000000006, 1.447092358435939
230.00000000000006, 1.4588633924216396
232, 1.4943464829999589
234.00000000000006, 1.4415921001855854
236.00000000000006, 1.4616638709890828
238, 1.493703002198064
240.00000000000006, 1.4387217989896988
242, 1.4610384649982469
244.00000000000006, 1.4931336603608703
246.00000000000006, 1.4572844171124677
248, 1.4770107370333476
250.00000000000006, 1.492950073202291
