t,Cd_p
0.02000000000000013, 0.0217481099983452
0.030000000000000082, 0.021010365484691818
0.04000000000000009, 0.02411579770549821
0.0500000000000001, 0.0023964073293427646
0.06000000000000005, 0.025475798915366
0.07000000000000006, 0.04712765643064287
0.08000000000000007, 0.04695843461467675
0.08999999999999997, 0.05975651535072046
0.09999999999999998, 0.06555733205319214
0.1100000000000001, 0.09028195009670625
0.1200000000000001, 0.10990517753079843
0.13000000000000012, 0.13184091327308778
0.14000000000000012, 0.19374299052249455
0.15000000000000013, 0.24652039970006712
0.16000000000000014, 0.27734437080493635
0.17000000000000004, 0.2813055991263198
0.18000000000000016, 0.32726455754162487
0.19000000000000017, 0.4152350910545941
0.20000000000000018, 0.5198662777301202
0.2100000000000002, 0.6187402395965229
0.2200000000000002, 0.7011232215145853
0.2300000000000002, 0.8157728843540042
0.2400000000000002, 1.0032734138514137
0.2500000000000002, 1.1445568175907184
0.26000000000000023, 1.206611785705178
0.27000000000000024, 1.4917277999090004
0.28000000000000025, 1.6339748161828354
0.29000000000000026, 1.893731102647756
0.30000000000000027, 2.1077870138766137
0.3100000000000003, 2.2594723345569037
0.3200000000000003, 2.6371916586029336
0.3300000000000003, 2.836886186860209
0.3400000000000003, 3.1921627647525206
0.3500000000000003, 3.485603989049139
0.3600000000000003, 3.7652502975238775
0.37000000000000033, 4.236658926712078
0.38000000000000034, 4.587952287520597
0.39000000000000035, 4.854009001145588
0.40000000000000036, 5.242381420473166
0.41000000000000036, 5.508234211202879
0.4200000000000004, 6.020585960021862
0.4300000000000004, 6.142528805580621
0.4400000000000004, 6.581514394609073
0.4500000000000004, 6.898213668286758
0.4600000000000004, 7.075683453466631
0.47000000000000053, 7.3852206595476595
0.4800000000000004, 7.655145801325148
0.49000000000000055, 7.817334447711559
0.5000000000000004, 8.046046491906601
0.5100000000000003, 8.0898496180459
0.5200000000000004, 8.290290552473984
0.5300000000000005, 8.328851028140445
0.5400000000000004, 8.386493294183957
0.5500000000000005, 8.357093806405189
0.5600000000000004, 8.339877642583051
0.5700000000000005, 8.286613842076417
0.5800000000000006, 8.10526621420368
0.5900000000000004, 8.017883814595049
0.6000000000000004, 7.914160627321788
0.6100000000000004, 7.618946617197093
0.6200000000000004, 7.493012080597673
0.6300000000000004, 7.229929617604007
0.6400000000000007, 6.964324172152217
0.6500000000000002, 6.721864616808638
0.6600000000000007, 6.433551216136326
0.6700000000000003, 6.194511147173451
0.6800000000000007, 5.927484399234263
0.6900000000000005, 5.605823789607307
0.7000000000000007, 5.417177508626999
0.7100000000000005, 5.162752388884947
0.7200000000000008, 4.908934893593823
0.7300000000000005, 4.584874860802223
0.7400000000000008, 4.42039821112192
0.7500000000000006, 4.15114947509613
0.7600000000000006, 3.946310770991314
0.7700000000000006, 3.771389645351782
0.7800000000000008, 3.5925175244653182
0.7900000000000006, 3.4327899326894844
0.8000000000000008, 3.285697969446474
0.8100000000000004, 3.1262322269496714
0.8200000000000008, 3.0192243601857314
0.8300000000000006, 2.909721148667284
0.8400000000000009, 2.828870458042587
0.8500000000000006, 2.732669979303065
0.8600000000000009, 2.6382801634058666
0.8700000000000007, 2.574328019320898
0.8800000000000009, 2.5094968197188514
0.8900000000000007, 2.453398912108149
0.9000000000000009, 2.400540617624632
0.9100000000000007, 2.3867048960401895
0.9200000000000009, 2.3339918236642205
0.9300000000000007, 2.3034731768527372
0.940000000000001, 2.272249632102227
0.9500000000000007, 2.241451754267789
0.960000000000001, 2.248028702917427
0.9700000000000008, 2.1977390781423516
0.980000000000001, 2.200424711075293
0.9900000000000008, 2.1993998067118596
1.0000000000000009, 2.2034954801081774
1.0100000000000007, 2.1581675002249554
1.020000000000001, 2.1589268765853653
1.0300000000000007, 2.1364066355523974
1.040000000000001, 2.134631705162647
1.0500000000000007, 2.1341412176862278
1.060000000000001, 2.1352312666500737
1.0700000000000007, 2.117765291091864
1.080000000000001, 2.1125478193789
1.0900000000000007, 2.11450860935037
1.100000000000001, 2.0892701443896016
1.1100000000000008, 2.091211226031117
1.120000000000001, 2.090674467568739
1.1300000000000008, 2.079502946389777
1.140000000000001, 2.0686475960453166
1.1500000000000008, 2.0709138274666543
1.160000000000001, 2.0478309189055004
1.1700000000000008, 2.080189866885611
1.180000000000001, 2.074474860183745
1.1900000000000008, 2.0506941496687787
1.200000000000001, 2.0721886584509157
1.2100000000000009, 2.045147206852672
1.220000000000001, 2.0473261046701765
1.2300000000000009, 2.046981603259976
1.240000000000001, 2.0470736778908076
1.2500000000000009, 2.047190591676351
1.2600000000000011, 2.0374771580926883
1.2700000000000014, 2.0033748923067165
1.2800000000000011, 1.9910670331133176
1.290000000000001, 2.0028797134775083
1.3000000000000012, 1.976090157329672
1.310000000000001, 2.0029266702391126
1.3200000000000012, 1.980316369598711
1.3300000000000014, 1.963865522240976
1.3400000000000012, 1.9604387708184063
1.350000000000001, 1.9600730238893576
1.3600000000000012, 1.9615656275245534
1.370000000000001, 1.9302948572307272
1.3800000000000017, 1.9170089781331114
1.390000000000001, 1.916042303985197
1.4000000000000012, 1.9163142048465112
1.410000000000001, 1.9156752641181711
1.4200000000000017, 1.9166390353618574
1.4300000000000015, 1.894233399330986
1.4400000000000013, 1.8743655831517714
1.450000000000001, 1.8735609670653908
1.4600000000000013, 1.8722164195559259
1.4700000000000015, 1.8665077085998405
1.4800000000000013, 1.8519409060529135
1.490000000000001, 1.827024512559582
1.5000000000000013, 1.8296378366193125
1.5100000000000011, 1.8293291603575526
1.5200000000000018, 1.8280167803815495
1.5300000000000011, 1.8266247743638608
1.5400000000000014, 1.777336349425898
1.5500000000000012, 1.829747975261533
1.5600000000000018, 1.8065231790448202
1.5700000000000016, 1.7861391299427432
1.5800000000000018, 1.77120668069184
1.5900000000000012, 1.7680161781637906
1.6000000000000019, 1.74061986441642
1.6100000000000017, 1.7422100483830327
1.6200000000000019, 1.7417544645566707
1.6300000000000017, 1.744459465360709
1.6400000000000015, 1.7195803304737254
1.6500000000000017, 1.7035287027285726
1.660000000000002, 1.7225179138721565
1.6700000000000017, 1.7087691794614344
1.6800000000000015, 1.6762463719424652
1.6900000000000013, 1.6766619726932959
1.700000000000002, 1.6769339876046274
1.7100000000000017, 1.6497506124008439
1.720000000000002, 1.6771789694175432
1.7300000000000018, 1.6178641541447618
1.740000000000002, 1.6318793440102795
1.7500000000000018, 1.6084540630888178
1.760000000000002, 1.6119451151540396
1.7700000000000018, 1.6125782307265482
1.7800000000000016, 1.5956077577632506
1.7900000000000018, 1.590867171283879
1.800000000000002, 1.5752822534151072
1.8100000000000018, 1.5681830649926596
1.820000000000002, 1.5677131425589401
1.8300000000000014, 1.5678651398711416
1.840000000000002, 1.5694753469619833
1.8500000000000019, 1.547341233690421
1.860000000000002, 1.5225547364657004
1.8700000000000019, 1.5246170003784485
1.8800000000000021, 1.5276533029339099
1.890000000000002, 1.487367950107899
1.9000000000000021, 1.4819400305861414
1.910000000000002, 1.4807600104660317
1.9200000000000017, 1.4816977329663779
1.930000000000002, 1.4657071358268503
1.9400000000000022, 1.46000435680741
1.950000000000002, 1.4453236705402261
1.9600000000000022, 1.4373455362270455
1.970000000000002, 1.4401173547717576
1.9800000000000022, 1.4154366492752715
1.990000000000002, 1.4296998589920662
2.0000000000000018, 1.415945586389462
2.0100000000000016, 1.3911112371210308
2.0200000000000014, 1.393845046920795
2.030000000000001, 1.3934319566087083
2.040000000000001, 1.3951098299904174
2.0500000000000007, 1.3651033070370744
2.0600000000000005, 1.3494438800895843
2.0700000000000003, 1.3515778287162874
2.08, 1.321756095433848
2.09, 1.3088486533793322
2.0999999999999996, 1.3317851663335354
2.1099999999999994, 1.305663654450882
2.119999999999999, 1.2805406849274092
2.129999999999999, 1.3064193457953337
2.139999999999999, 1.2728128565406536
2.1499999999999986, 1.2627201934361807
2.1599999999999984, 1.262916876601544
2.169999999999998, 1.262996190418292
2.179999999999998, 1.262656917042623
2.1899999999999977, 1.2651355301408778
2.1999999999999975, 1.2393414987686526
2.2099999999999973, 1.241030916162778
2.219999999999997, 1.2387928896084759
2.229999999999997, 1.217596197329577
2.2399999999999967, 1.2193119240572052
2.2499999999999964, 1.2219458250267614
2.2599999999999962, 1.1976423996044865
2.269999999999996, 1.1881918619292193
2.279999999999996, 1.1756265512469604
2.2899999999999956, 1.1757111705508656
2.2999999999999954, 1.1759966683434762
2.309999999999995, 1.1769371684538399
2.319999999999995, 1.1603369707704871
2.3299999999999947, 1.1357428997417287
2.3399999999999945, 1.1551220474106394
2.3499999999999943, 1.1510517897298271
2.359999999999994, 1.1300547183687328
2.369999999999994, 1.1303639620140942
2.3799999999999937, 1.108858901230537
2.3899999999999935, 1.1107255106494307
2.3999999999999932, 1.0994472519527996
2.409999999999993, 1.0887353470488321
2.419999999999993, 1.0906933210172625
2.4299999999999926, 1.068485690973457
2.4399999999999924, 1.065590087546056
2.449999999999992, 1.0871292727030557
2.459999999999992, 1.0588364739217617
2.4699999999999918, 1.0419044860149214
2.4799999999999915, 1.0647684886948419
2.4899999999999913, 1.0435684749979686
2.499999999999991, 1.0456963588286534
2.509999999999991, 1.032729890278091
2.5199999999999907, 1.0267159763602152
2.5299999999999905, 1.0604798288183197
2.5399999999999903, 1.0231634911911343
2.54999999999999, 0.9998240669490741
2.55999999999999, 1.001756481365554
2.5699999999999896, 1.0017407757441674
2.5799999999999894, 1.0017096068518647
2.589999999999989, 1.0018104388498728
2.599999999999989, 1.0012400126662513
2.6099999999999888, 0.996965305064041
2.6199999999999886, 0.9764516019481562
2.6299999999999883, 1.003215650188185
2.639999999999988, 1.0034342165826224
2.649999999999988, 0.9778801552542973
2.6599999999999877, 0.9953528449482505
2.6699999999999875, 0.9782617224464865
2.6799999999999873, 0.9565315346598169
2.689999999999987, 0.9582368061946944
2.699999999999987, 0.9695947997772443
2.7099999999999866, 0.960231696808588
2.7199999999999864, 0.968361774413367
2.729999999999986, 0.9619091506075357
2.739999999999986, 0.9645767271781089
2.749999999999986, 0.9827856762051503
2.7599999999999856, 0.9552089404811959
2.7699999999999854, 0.9738340285646849
2.779999999999985, 0.9766647318875137
2.789999999999985, 0.9563196443984197
2.7999999999999847, 0.9575697005445143
2.8099999999999845, 0.9729925405568558
2.8199999999999843, 0.9578024528380382
2.829999999999984, 0.954589590230114
2.839999999999984, 1.0002906400438611
2.8499999999999837, 1.0004408967262144
2.8599999999999834, 1.001779150808602
2.8699999999999832, 1.0017299182956592
2.879999999999983, 1.0017021281524237
2.889999999999983, 1.0016965713426877
2.8999999999999826, 1.0017570282351933
2.9099999999999824, 1.0020208100705972
2.9199999999999826, 0.9988146124726001
2.929999999999982, 1.0228355006147325
2.9399999999999817, 0.9970064647288588
2.9499999999999815, 1.0242024068910673
2.9599999999999813, 1.0228055932846551
2.969999999999981, 1.0235082602818792
2.979999999999981, 1.0333208899741422
2.989999999999981, 1.0455336664951886
2.9999999999999805, 1.0442247956149764
3.0099999999999802, 1.0625576578120608
3.01999999999998, 1.084623980068958
3.02999999999998, 1.0638792120371754
3.0399999999999796, 1.0910342486407956
3.0499999999999794, 1.0862403398961042
3.0599999999999796, 1.1123072166199641
3.069999999999979, 1.1099756502551124
3.0799999999999783, 1.110129440357401
3.089999999999978, 1.1230851878744836
3.0999999999999788, 1.1321194543819253
3.1099999999999786, 1.1431859920139225
3.1199999999999783, 1.1544221597803315
3.129999999999978, 1.1638484157682427
3.1399999999999775, 1.1751351986028276
3.1499999999999773, 1.2000670909965478
3.159999999999977, 1.1979677075831958
3.169999999999977, 1.2035538289465109
3.1799999999999766, 1.2183771884002113
3.1899999999999764, 1.2423766937981746
3.199999999999976, 1.2560642395314936
3.209999999999976, 1.261941791206663
3.2199999999999753, 1.2768624729022875
3.229999999999976, 1.2846205878473533
3.239999999999976, 1.2833233812311882
3.2499999999999756, 1.3066477856081455
3.2599999999999754, 1.3279100452034456
3.269999999999975, 1.349015179618121
3.279999999999975, 1.3491981245128066
3.2899999999999743, 1.3509670350389307
3.299999999999974, 1.3631260296916459
3.309999999999974, 1.3955011077218167
3.3199999999999736, 1.3931057297677825
3.3299999999999734, 1.407821005061212
3.339999999999973, 1.4387034735004072
3.349999999999973, 1.435186342234882
3.359999999999973, 1.4620848446671282
3.369999999999973, 1.482711298673653
3.379999999999973, 1.4813186591203085
3.3899999999999726, 1.5136097989520607
3.3999999999999724, 1.5457590442205813
3.409999999999972, 1.5436461914635906
3.419999999999972, 1.5662694217701159
3.4299999999999713, 1.5660112768461296
3.439999999999971, 1.585066251994732
3.449999999999971, 1.6131178273243592
3.4599999999999707, 1.6111111204682693
3.4699999999999704, 1.6106653384732432
3.4799999999999702, 1.6246868869204256
3.48999999999997, 1.6556511911881024
3.49999999999997, 1.6662919013133823
3.50999999999997, 1.6994371194546964
3.51999999999997, 1.6935488552482987
3.5299999999999696, 1.7424136734764168
3.5399999999999694, 1.7421725371376624
3.549999999999969, 1.7405031934725983
3.559999999999969, 1.782871428425274
3.5699999999999683, 1.7602175914862528
3.579999999999969, 1.8122674366345777
3.5899999999999688, 1.8049287719042084
3.5999999999999686, 1.829952609962831
3.6099999999999683, 1.8461018041933777
3.619999999999968, 1.854157776146529
3.629999999999968, 1.871977033685404
3.6399999999999677, 1.8954150073504543
3.6499999999999675, 1.907787752417068
3.6599999999999673, 1.9169610648901418
3.669999999999966, 1.9379549126138258
3.679999999999966, 1.9596600384402976
3.6899999999999658, 1.9709722549813478
3.6999999999999664, 1.9611951176652873
3.709999999999966, 2.0004003602717404
3.719999999999966, 2.0256839364232953
3.729999999999966, 2.0166039181727378
3.7399999999999656, 2.037368008532777
3.7499999999999654, 2.045997295390354
3.759999999999965, 2.044980167865745
3.769999999999965, 2.070645058907658
3.7799999999999647, 2.065540645581624
3.7899999999999645, 2.0907002322142
3.7999999999999643, 2.116828393980068
3.809999999999963, 2.1117652429578264
3.819999999999963, 2.1235971042376107
3.8299999999999628, 2.1344065283452274
3.8399999999999634, 2.142822265304595
3.8499999999999632, 2.156647072521558
3.859999999999963, 2.1618854505043963
3.869999999999963, 2.1945252114438
3.8799999999999626, 2.2176187171692696
3.8899999999999624, 2.1983314589792293
3.899999999999962, 2.20195706737055
3.909999999999962, 2.2379132908707042
3.9199999999999617, 2.242681554479411
3.9299999999999615, 2.2428785626177437
3.9399999999999613, 2.2427021742648634
3.94999999999996, 2.254497635512376
3.95999999999996, 2.264762236067426
3.96999999999996, 2.2655576489039113
3.9799999999999605, 2.2635616223841133
3.9899999999999602, 2.336414176514076
3.99999999999996, 2.3765175159139353
4.00999999999996, 2.3452545448973794
4.01999999999996, 2.3113908490344848
4.029999999999959, 2.3075809747197553
4.039999999999959, 2.3243431096140235
4.049999999999959, 2.329793571958543
4.059999999999959, 2.327833946618764
4.0699999999999585, 2.3530038627115033
4.079999999999958, 2.351298375517576
4.089999999999957, 2.351824312252429
4.099999999999957, 2.3516955634258103
4.109999999999957, 2.3519576544313097
4.1199999999999575, 2.360300871237122
4.129999999999957, 2.3752437040371177
4.139999999999957, 2.348115901202352
4.149999999999957, 2.3701327357072373
4.159999999999957, 2.367491164503999
4.169999999999956, 2.351265213537136
4.179999999999956, 2.355337719225542
4.189999999999956, 2.3771288314758188
4.199999999999956, 2.3491841231891577
4.2099999999999556, 2.3795094934609544
4.219999999999955, 2.394934645087556
4.229999999999954, 2.3956689793922727
4.239999999999954, 2.395382419309975
4.249999999999955, 2.3955265596747815
4.2599999999999545, 2.395152696162455
4.269999999999954, 2.3871908450484156
4.279999999999954, 2.3730136928139736
4.289999999999954, 2.373849056535601
4.299999999999954, 2.3716780407535474
4.309999999999953, 2.397518201711339
4.319999999999953, 2.39496975790977
4.329999999999953, 2.3950585485405185
4.339999999999953, 2.404342877028416
4.349999999999953, 2.46002456971544
4.359999999999952, 2.392275070555634
4.369999999999951, 2.396082467926533
4.379999999999951, 2.3727202474119373
4.389999999999952, 2.351736092453855
4.3999999999999515, 2.362732839762568
4.409999999999951, 2.3538144357778634
4.419999999999951, 2.3509353253524594
4.429999999999951, 2.3705056309751917
4.439999999999951, 2.3726201058273197
4.44999999999995, 2.37577529098089
4.45999999999995, 2.3498432300282985
4.46999999999995, 2.352223735756475
4.47999999999995, 2.351860407096357
4.48999999999995, 2.351817545080877
4.499999999999949, 2.351823190239564
4.509999999999948, 2.351994424261708
4.519999999999948, 2.3518669853754233
4.529999999999949, 2.341586166097816
4.5399999999999485, 2.3298252863849704
4.549999999999948, 2.33052190463086
4.559999999999948, 2.328256209795356
4.569999999999948, 2.3474932173550087
4.579999999999948, 2.32887791493021
4.5899999999999475, 2.3298628311403284
4.599999999999947, 2.330048039646613
4.609999999999947, 2.3298518400137027
4.619999999999947, 2.332099574928712
4.629999999999947, 2.306055320847026
4.639999999999946, 2.3323182796168673
4.649999999999946, 2.373563040838423
4.659999999999946, 2.326877238346384
4.669999999999946, 2.3081418580984128
4.6799999999999455, 2.3079583487167525
4.689999999999945, 2.308367076994614
4.699999999999945, 2.3100299986665362
4.709999999999945, 2.289304034920452
4.719999999999945, 2.287109480232626
4.7299999999999445, 2.2864201510251227
4.739999999999944, 2.2864650503321187
4.749999999999944, 2.2867069251798355
4.759999999999944, 2.28739860215617
4.769999999999944, 2.2702352319000134
4.779999999999943, 2.2882186652711596
4.789999999999943, 2.2735166454038023
4.799999999999943, 2.2647864562509845
4.809999999999943, 2.2647309280941776
4.8199999999999426, 2.264558309234662
4.829999999999942, 2.2562040883295538
4.839999999999942, 2.2420580058871167
4.849999999999942, 2.235891310737884
4.859999999999942, 2.2203098907604044
4.8699999999999415, 2.2210191580474614
4.879999999999941, 2.221193041927993
4.889999999999941, 2.2211573083299925
4.899999999999941, 2.221341870329706
4.909999999999941, 2.2217507772848037
4.91999999999994, 2.2076968089140188
4.92999999999994, 2.199365110056821
4.93999999999994, 2.2103651902925208
4.94999999999994, 2.2213151031409737
4.95999999999994, 2.1849878245189416
4.969999999999939, 2.198836874541943
4.979999999999939, 2.174645122238104
4.989999999999939, 2.1774355112972046
4.999999999999939, 2.1715342709719607
5.0099999999999385, 2.154799695933715
5.019999999999938, 2.1556722617960062
5.029999999999938, 2.1560323024430623
5.039999999999938, 2.156611028868081
5.049999999999938, 2.141532587110902
5.059999999999937, 2.134406195105079
5.069999999999937, 2.133290438624453
5.079999999999937, 2.1336398069294162
5.089999999999937, 2.110827657550793
5.099999999999937, 2.1116534273540317
5.109999999999936, 2.127547510303515
5.119999999999936, 2.1116509996983375
5.129999999999936, 2.1116347604390313
5.139999999999936, 2.1141028744894825
5.1499999999999355, 2.088303674132188
5.159999999999935, 2.09083350433594
5.169999999999935, 2.0905528005148852
5.179999999999935, 2.090507666371092
5.189999999999935, 2.09051501574541
5.1999999999999345, 2.090515432476103
5.209999999999934, 2.0905150576525813
5.219999999999934, 2.0905303285423287
5.229999999999934, 2.090514903102221
5.239999999999934, 2.0898081137782505
5.249999999999933, 2.0916323637900085
5.259999999999933, 2.074518108387476
5.269999999999933, 2.091317378306975
5.279999999999933, 2.090722980439928
5.2899999999999325, 2.0905018621625437
5.299999999999932, 2.090598224599127
5.309999999999932, 2.0899025546003145
5.319999999999932, 2.087267925025337
5.329999999999932, 2.068004341298817
5.3399999999999315, 2.071276561398939
5.349999999999931, 2.068324732130435
5.359999999999931, 2.048495698143107
5.369999999999931, 2.0857598415541823
5.379999999999931, 2.0472452798998937
5.38999999999993, 2.0471519066105976
5.39999999999993, 2.0473537313315013
5.40999999999993, 2.056167338952889
5.41999999999993, 2.0501923250243053
5.4299999999999295, 2.040593148550066
5.439999999999929, 2.041850271457676
5.449999999999929, 2.051309751076257
5.459999999999929, 2.054836995684198
5.469999999999929, 2.0475477494950987
5.4799999999999285, 2.046208994826898
5.489999999999928, 2.04581803512502
5.499999999999928, 2.020998543729977
5.509999999999928, 2.047084810173722
5.519999999999928, 2.0368000448407635
5.529999999999927, 2.0241638225374707
5.539999999999927, 2.049024401861381
5.549999999999927, 2.0471758693981705
5.559999999999927, 2.0531071337265594
5.569999999999927, 2.071593737531387
5.579999999999926, 2.0449679468425295
5.589999999999926, 2.047284836823163
5.599999999999926, 2.0469957062787145
5.609999999999926, 2.0469552874205235
5.6199999999999255, 2.046962510345896
5.629999999999925, 2.046966304304746
5.639999999999925, 2.046966529687328
5.649999999999925, 2.0468153376822364
5.659999999999925, 2.0470393191305583
5.669999999999924, 2.0558086875587946
5.679999999999924, 2.0702280703408498
5.689999999999924, 2.0447852109973006
5.699999999999924, 2.0471457674975753
5.709999999999924, 2.046994312025806
5.719999999999923, 2.0470079976107414
5.729999999999923, 2.047323114575857
5.739999999999923, 2.044082306314838
5.749999999999923, 2.067658756242313
5.7599999999999225, 2.0445138277994985
5.769999999999922, 2.0464034764672157
5.779999999999922, 2.061542891311845
5.789999999999922, 2.04667460642278
5.799999999999922, 2.047720161270753
5.8099999999999214, 2.046943607020296
5.819999999999921, 2.0469512154002736
5.829999999999921, 2.0469551437837588
5.839999999999921, 2.046817617861276
5.849999999999921, 2.0475947674579196
5.85999999999992, 2.053369160741024
5.86999999999992, 2.0532746694783484
5.87999999999992, 2.0476011453109138
5.88999999999992, 2.046818720679255
5.8999999999999195, 2.046954017188405
5.909999999999919, 2.046966449229533
5.919999999999919, 2.046963235194845
5.929999999999919, 2.0469627846572287
5.939999999999919, 2.046963224651204
5.9499999999999185, 2.0469765006114926
5.959999999999918, 2.046938724645944
5.969999999999918, 2.046359355353971
5.979999999999918, 2.048996898527548
5.989999999999918, 2.028993421276269
5.999999999999917, 2.0482985184624845
6.009999999999917, 2.0472203283958663
6.019999999999917, 2.046408477077197
6.029999999999917, 2.0444318890505677
6.039999999999917, 2.0189420348275107
6.049999999999916, 2.0713202505954236
6.059999999999916, 2.0552282438053417
6.069999999999916, 2.047043648528529
6.079999999999916, 2.0468264390333353
6.0899999999999155, 2.046966047019879
6.099999999999915, 2.04696589499979
6.109999999999915, 2.04696301490198
6.119999999999915, 2.046963704709647
6.129999999999915, 2.046960602760283
6.139999999999914, 2.0469374425465006
6.149999999999914, 2.0471196428714578
6.159999999999914, 2.047937604464245
6.169999999999915, 2.0315420731031537
6.1799999999999145, 2.0249777033361163
6.189999999999913, 2.0385627836790725
6.199999999999913, 2.046758487912008
6.209999999999913, 2.0465521082867433
6.219999999999913, 2.047016395104194
6.2299999999999125, 2.020986531984878
6.239999999999912, 2.045637261598401
6.249999999999912, 2.038193472766931
6.259999999999912, 2.02495981821874
6.269999999999912, 2.0308375607308804
6.279999999999911, 2.050490477951552
6.289999999999911, 2.0279923519634124
6.299999999999911, 2.047902710305177
6.309999999999912, 2.0432593419251575
6.3199999999999115, 2.0373803449591854
6.32999999999991, 2.0449344745913542
6.33999999999991, 2.02129068736663
6.34999999999991, 2.0475764358640482
6.35999999999991, 2.0333351815732037
6.3699999999999095, 2.046318123140047
6.379999999999909, 2.045658417917629
6.389999999999909, 2.048206384807699
6.399999999999909, 2.022857044894078
6.409999999999909, 2.025410297668323
6.4199999999999084, 2.0253531624588064
6.429999999999908, 2.0244662780447698
6.439999999999908, 2.020211834816955
6.449999999999909, 2.0173966503226843
6.4599999999999085, 2.024662687973226
6.469999999999907, 2.0253515890519935
6.479999999999907, 2.0251923701620207
6.489999999999907, 2.0251981803659937
6.499999999999907, 2.025188716390769
6.5099999999999065, 2.024472039196503
6.519999999999906, 2.026206796838668
6.529999999999906, 2.009374269514872
6.539999999999906, 2.025941746465147
6.549999999999906, 2.0253597270595947
6.5599999999999055, 2.0253387867221413
6.569999999999906, 2.0267117338841274
6.579999999999905, 2.0065421307265474
6.589999999999906, 2.0274815803407833
6.599999999999905, 2.0246451516403923
6.609999999999904, 2.0252008386362306
6.619999999999904, 2.0244080491671177
6.629999999999904, 2.0243329073739638
6.639999999999903, 2.0123941828187313
6.6499999999999035, 2.025310993546608
6.659999999999904, 2.0253976473638673
6.669999999999903, 2.0251756050084992
6.679999999999904, 2.0251519781827483
6.689999999999903, 2.025299576118883
6.699999999999903, 2.026488980503178
6.709999999999902, 2.0083812021752934
6.719999999999903, 2.008129888337649
6.729999999999902, 2.026547194653027
6.7399999999999025, 2.025340715608497
6.749999999999901, 2.0245713626360775
6.759999999999901, 2.023936323102685
6.7699999999999, 1.9990791912253911
6.779999999999901, 2.025370895812639
6.7899999999999014, 2.024630691252657
6.7999999999999, 2.025201967569995
6.809999999999901, 2.0251981222911475
6.8199999999999, 2.0251862267834753
6.829999999999901, 2.025186710619028
6.8399999999998995, 2.0251869990555065
6.8499999999999, 2.0251873343123243
6.859999999999899, 2.025184362782305
6.8699999999999, 2.025172189247236
6.879999999999899, 2.02532965281749
6.889999999999898, 2.0256532405948313
6.899999999999898, 2.013254443949009
6.909999999999898, 2.005267407598911
6.919999999999897, 2.050321958319792
6.929999999999898, 2.047203017319852
6.939999999999898, 2.0323906868284496
6.949999999999897, 2.047400979083548
6.959999999999898, 2.046577958182894
6.969999999999897, 2.0490001763277306
6.979999999999897, 2.028940965414808
6.989999999999896, 2.048304618850789
6.999999999999897, 2.0471508326825223
7.009999999999896, 2.0469287709355015
7.0199999999998965, 2.0469601998941513
7.029999999999895, 2.0469639508907242
7.039999999999895, 2.0469631743262617
7.049999999999894, 2.0469631358316995
7.059999999999895, 2.04696314671812
7.0699999999998955, 2.046962354609988
7.079999999999894, 2.0469639399495136
7.089999999999895, 2.0469995156253873
7.099999999999894, 2.046871105858802
7.109999999999895, 2.0453602177560946
7.1199999999998935, 2.0652732746364713
7.129999999999894, 2.0668561728826624
7.139999999999893, 2.085664486010792
7.149999999999894, 2.089770801342862
7.159999999999893, 2.092829661233658
7.1699999999998925, 2.0669029433907617
7.179999999999892, 2.0797044371152715
7.189999999999892, 2.1119044371310416
7.199999999999893, 2.0879716733550637
7.209999999999892, 2.0905250200340504
7.219999999999892, 2.091122261119427
7.229999999999891, 2.089585481705111
7.239999999999892, 2.1146374489678763
7.249999999999891, 2.112117773991365
7.259999999999891, 2.112266731471074
7.26999999999989, 2.1122022939591147
7.279999999999891, 2.1115294438958223
7.28999999999989, 2.1256600422658103
7.299999999999891, 2.154262428149959
7.3099999999998895, 2.129705990280069
7.319999999999889, 2.156944594291467
7.329999999999888, 2.155152783531097
7.339999999999889, 2.155672650743359
7.3499999999998895, 2.1687136205676474
7.359999999999888, 2.156671787321912
7.369999999999889, 2.1661856077543895
7.379999999999888, 2.17681525547955
7.389999999999889, 2.2018815727118444
7.399999999999888, 2.19919927903781
7.409999999999888, 2.199704528209139
7.419999999999887, 2.1973311081004923
7.429999999999888, 2.223403647468423
7.439999999999887, 2.218470768511498
7.449999999999887, 2.2444577646833324
7.459999999999886, 2.242305137261475
7.469999999999886, 2.2426343899666747
7.479999999999887, 2.2546715322226767
7.489999999999886, 2.264702974040926
7.499999999999886, 2.274971289071715
7.509999999999885, 2.28672939481595
7.519999999999886, 2.2853149576381604
7.529999999999885, 2.304458723277424
7.5399999999998855, 2.331763241228515
7.549999999999884, 2.3297630469950477
7.559999999999885, 2.329143566707952
7.569999999999884, 2.344273276636546
7.579999999999884, 2.375142522299079
7.589999999999885, 2.3709907254181886
7.599999999999885, 2.3967721094809917
7.609999999999885, 2.392545501517045
7.619999999999885, 2.417703047923329
7.629999999999884, 2.416421096613721
7.639999999999884, 2.417269191325733
7.649999999999884, 2.4268680408532255
7.659999999999884, 2.4384385172714147
7.669999999999882, 2.46901839519057
7.679999999999883, 2.5017457460902612
7.689999999999881, 2.5024391090271436
7.699999999999883, 2.521326974519031
7.709999999999881, 2.5233508276069543
7.7199999999998825, 2.558101393328453
7.729999999999882, 2.5715094122246
7.739999999999882, 2.5917371263091837
7.749999999999882, 2.6156261503768974
7.759999999999882, 2.633749267899148
7.7699999999998814, 2.6567768555605795
7.779999999999881, 2.6771203652160374
7.789999999999881, 2.700153031954166
7.799999999999879, 2.7312614373427095
7.809999999999881, 2.763981323115683
7.819999999999879, 2.7683987415747673
7.82999999999988, 2.825741194387632
7.839999999999878, 2.8402482039807246
7.84999999999988, 2.8754169114594212
7.859999999999878, 2.901052621063471
7.869999999999879, 2.9330067082249727
7.879999999999879, 2.9668655776998882
7.889999999999879, 3.0057829627896027
7.899999999999879, 3.027125025797293
7.9099999999998785, 3.0555494775813905
7.919999999999878, 3.1355625094843766
7.929999999999878, 3.14978157572801
7.939999999999878, 3.2212885585619517
7.949999999999876, 3.2347137003066635
7.959999999999877, 3.303112935126215
7.969999999999875, 3.3627372347902487
7.979999999999877, 3.3882209553703717
7.989999999999875, 3.475281629129128
7.9999999999998765, 3.534283699260854
